\begin{tikzpicture}[/tikz/background rectangle/.style={fill={rgb,1:red,1.0;green,1.0;blue,1.0}, draw opacity={1.0}}, show background rectangle]
\begin{axis}[point meta max={nan}, point meta min={nan}, legend cell align={left}, legend columns={1}, title={}, title style={at={{(0.5,1)}}, anchor={south}, font={{\fontsize{14 pt}{18.2 pt}\selectfont}}, color={rgb,1:red,0.0;green,0.0;blue,0.0}, draw opacity={1.0}, rotate={0.0}}, legend style={color={rgb,1:red,0.0;green,0.0;blue,0.0}, draw opacity={1.0}, line width={1}, solid, fill={rgb,1:red,1.0;green,1.0;blue,1.0}, fill opacity={1.0}, text opacity={1.0}, font={{\fontsize{8 pt}{10.4 pt}\selectfont}}, text={rgb,1:red,0.0;green,0.0;blue,0.0}, cells={anchor={center}}, at={(1.02, 1)}, anchor={north west}}, axis background/.style={fill={rgb,1:red,1.0;green,1.0;blue,1.0}, opacity={1.0}}, anchor={north west}, xshift={1.0mm}, yshift={-1.0mm}, width={145.4mm}, height={99.6mm}, scaled x ticks={false}, xlabel={}, x tick style={color={rgb,1:red,0.0;green,0.0;blue,0.0}, opacity={1.0}}, x tick label style={color={rgb,1:red,0.0;green,0.0;blue,0.0}, opacity={1.0}, rotate={0}}, xlabel style={at={(ticklabel cs:0.5)}, anchor=near ticklabel, at={{(ticklabel cs:0.5)}}, anchor={near ticklabel}, font={{\fontsize{11 pt}{14.3 pt}\selectfont}}, color={rgb,1:red,0.0;green,0.0;blue,0.0}, draw opacity={1.0}, rotate={0.0}}, xmajorgrids={true}, xmin={0.015999999999999986}, xmax={2.984}, xtick={{0.5,1.5,2.5}}, xticklabels={{$ClassicCrust$,$DeepPan$,$ThinNCrispy$}}, xtick align={inside}, xticklabel style={font={{\fontsize{8 pt}{10.4 pt}\selectfont}}, color={rgb,1:red,0.0;green,0.0;blue,0.0}, draw opacity={1.0}, rotate={0.0}}, x grid style={color={rgb,1:red,0.0;green,0.0;blue,0.0}, draw opacity={0.1}, line width={0.5}, solid}, axis x line*={left}, x axis line style={color={rgb,1:red,0.0;green,0.0;blue,0.0}, draw opacity={1.0}, line width={1}, solid}, scaled y ticks={false}, ylabel={$D \text{ (cm)}$}, y tick style={color={rgb,1:red,0.0;green,0.0;blue,0.0}, opacity={1.0}}, y tick label style={color={rgb,1:red,0.0;green,0.0;blue,0.0}, opacity={1.0}, rotate={0}}, ylabel style={at={(ticklabel cs:0.5)}, anchor=near ticklabel, at={{(ticklabel cs:0.5)}}, anchor={near ticklabel}, font={{\fontsize{11 pt}{14.3 pt}\selectfont}}, color={rgb,1:red,0.0;green,0.0;blue,0.0}, draw opacity={1.0}, rotate={0.0}}, ymajorgrids={true}, ymin={25.3855}, ymax={29.7845}, ytick={{26.0,27.0,28.0,29.0}}, yticklabels={{$26$,$27$,$28$,$29$}}, ytick align={inside}, yticklabel style={font={{\fontsize{8 pt}{10.4 pt}\selectfont}}, color={rgb,1:red,0.0;green,0.0;blue,0.0}, draw opacity={1.0}, rotate={0.0}}, y grid style={color={rgb,1:red,0.0;green,0.0;blue,0.0}, draw opacity={0.1}, line width={0.5}, solid}, axis y line*={left}, y axis line style={color={rgb,1:red,0.0;green,0.0;blue,0.0}, draw opacity={1.0}, line width={1}, solid}, colorbar={false}]
    \addplot[color={rgb,1:red,0.0;green,0.0;blue,0.0}, name path={a5401ee7-c9bd-49a6-bda9-2f0aa51e70d0}, area legend, fill={rgb,1:red,0.0;green,0.6056;blue,0.9787}, fill opacity={1.0}, draw opacity={1.0}, line width={0}, solid, forget plot]
        table[row sep={\\}]
        {
            \\
            0.5416546719989935  25.531462365003275  \\
            0.5455173663675735  25.56460172411212  \\
            0.5497551916834748  25.597741083220967  \\
            0.554412686311593  25.63088044232981  \\
            0.5595366692876907  25.66401980143866  \\
            0.5651752525512741  25.697159160547503  \\
            0.5713766358438511  25.73029851965635  \\
            0.5781876981586067  25.763437878765195  \\
            0.5856524094912091  25.796577237874043  \\
            0.5938100966687482  25.829716596982887  \\
            0.6026936068103179  25.862855956091735  \\
            0.6123274210459336  25.89599531520058  \\
            0.6227257790143134  25.929134674309427  \\
            0.6338908808936161  25.96227403341827  \\
            0.6458112378289083  25.99541339252712  \\
            0.6584602431853142  26.028552751635964  \\
            0.6717950357270042  26.06169211074481  \\
            0.6857557213504658  26.094831469853656  \\
            0.700265012266001  26.127970828962503  \\
            0.7152283315587824  26.16111018807135  \\
            0.7305344170787273  26.194249547180195  \\
            0.7460564420004833  26.227388906289043  \\
            0.7616536507389688  26.260528265397888  \\
            0.7771734889511162  26.293667624506735  \\
            0.7924541859927141  26.32680698361558  \\
            0.8073277284237828  26.359946342724427  \\
            0.821623145006784  26.39308570183327  \\
            0.8351700081422369  26.42622506094212  \\
            0.8478020447730197  26.459364420050964  \\
            0.8593607422439833  26.49250377915981  \\
            0.8696988319921148  26.525643138268656  \\
            0.878683536560777  26.558782497377504  \\
            0.8861994732741596  26.591921856486348  \\
            0.8921511206560172  26.625061215595196  \\
            0.8964647707086992  26.65820057470404  \\
            0.8990899105961845  26.691339933812888  \\
            0.8999999999999999  26.724479292921732  \\
            0.8991926342055114  26.75761865203058  \\
            0.8966891065439772  26.790758011139424  \\
            0.8925334059184598  26.82389737024827  \\
            0.8867907046603598  26.857036729357116  \\
            0.8795454079797738  26.890176088465964  \\
            0.8708988481269102  26.923315447574808  \\
            0.8609667137066025  26.956454806683656  \\
            0.8498763073208149  26.9895941657925  \\
            0.8377637230823629  27.022733524901348  \\
            0.8247710300283333  27.055872884010192  \\
            0.8110435387451941  27.08901224311904  \\
            0.7967272174142834  27.122151602227884  \\
            0.781966310873251  27.155290961336732  \\
            0.7669012030347919  27.188430320445576  \\
            0.7516665499063935  27.221569679554424  \\
            0.7363896981901761  27.254709038663268  \\
            0.7211893935308433  27.287848397772116  \\
            0.7061747732695997  27.32098775688096  \\
            0.6914446312263945  27.354127115989808  \\
            0.6770869365864118  27.387266475098652  \\
            0.6631785852904625  27.4204058342075  \\
            0.6497853602042466  27.453545193316344  \\
            0.6369620754870208  27.486684552425192  \\
            0.6247528806883456  27.519823911534036  \\
            0.6131917008706249  27.552963270642884  \\
            0.6023027902152646  27.58610262975173  \\
            0.5921013779014835  27.619241988860576  \\
            0.5825943863886437  27.65238134796942  \\
            0.5737812034863905  27.68552070707827  \\
            0.565654490719729  27.718660066187113  \\
            0.5582010114936977  27.75179942529596  \\
            0.5514024634750039  27.784938784404805  \\
            0.5452363004980496  27.818078143513652  \\
            0.5396765302412433  27.851217502622497  \\
            0.5346944749748516  27.884356861731344  \\
            0.530259483910987  27.91749622084019  \\
            0.5263395871290542  27.950635579949036  \\
            0.5229020827242443  27.98377493905788  \\
            0.5199140507281703  28.01691429816673  \\
            0.5173427894533115  28.050053657275573  \\
            0.515156172170696  28.08319301638442  \\
            0.5133229243804411  28.116332375493265  \\
            0.5118128243014225  28.149471734602113  \\
            0.5105968315040759  28.182611093710957  \\
            0.5096471507484922  28.215750452819805  \\
            0.508937239976927  28.24888981192865  \\
            0.5084417729575129  28.282029171037497  \\
            0.5081365682045261  28.315168530146344  \\
            0.5079984964433059  28.34830788925519  \\
            0.5080053789961653  28.381447248364037  \\
            0.5081358890131784  28.41458660747288  \\
            0.5083694664588743  28.44772596658173  \\
            0.5086862562221849  28.480865325690573  \\
            0.5090670767026144  28.51400468479942  \\
            0.5094934238306321  28.547144043908265  \\
            0.5099475128219763  28.580283403017113  \\
            0.5104123571831332  28.613422762125957  \\
            0.510871881732695  28.646562121234805  \\
            0.511311063840124  28.67970148034365  \\
            0.5117160948643865  28.712840839452497  \\
            0.5120745520389981  28.74598019856134  \\
            0.5123755699101592  28.77911955767019  \\
            0.51260999996853  28.812258916779033  \\
            0.5127705473583969  28.84539827588788  \\
            0.5128518744901073  28.878537634996725  \\
            0.4871481255098928  28.878537634996725  \\
            0.48722945264160317  28.84539827588788  \\
            0.48739000003147004  28.812258916779033  \\
            0.48762443008984085  28.77911955767019  \\
            0.48792544796100196  28.74598019856134  \\
            0.4882839051356135  28.712840839452497  \\
            0.48868893615987596  28.67970148034365  \\
            0.48912811826730496  28.646562121234805  \\
            0.48958764281686684  28.613422762125957  \\
            0.49005248717802374  28.580283403017113  \\
            0.4905065761693678  28.547144043908265  \\
            0.49093292329738564  28.51400468479942  \\
            0.49131374377781517  28.480865325690573  \\
            0.4916305335411258  28.44772596658173  \\
            0.4918641109868216  28.41458660747288  \\
            0.49199462100383473  28.381447248364037  \\
            0.49200150355669414  28.34830788925519  \\
            0.49186343179547387  28.315168530146344  \\
            0.4915582270424871  28.282029171037497  \\
            0.49106276002307303  28.24888981192865  \\
            0.49035284925150774  28.215750452819805  \\
            0.48940316849592413  28.182611093710957  \\
            0.4881871756985775  28.149471734602113  \\
            0.48667707561955886  28.116332375493265  \\
            0.48484382782930396  28.08319301638442  \\
            0.48265721054668853  28.050053657275573  \\
            0.4800859492718296  28.01691429816673  \\
            0.47709791727575573  27.98377493905788  \\
            0.4736604128709459  27.950635579949036  \\
            0.469740516089013  27.91749622084019  \\
            0.46530552502514844  27.884356861731344  \\
            0.46032346975875676  27.851217502622497  \\
            0.45476369950195045  27.818078143513652  \\
            0.4485975365249962  27.784938784404805  \\
            0.4417989885063022  27.75179942529596  \\
            0.43434550928027105  27.718660066187113  \\
            0.4262187965136095  27.68552070707827  \\
            0.41740561361135636  27.65238134796942  \\
            0.40789862209851646  27.619241988860576  \\
            0.39769720978473544  27.58610262975173  \\
            0.38680829912937514  27.552963270642884  \\
            0.3752471193116544  27.519823911534036  \\
            0.3630379245129792  27.486684552425192  \\
            0.3502146397957534  27.453545193316344  \\
            0.3368214147095375  27.4204058342075  \\
            0.3229130634135881  27.387266475098652  \\
            0.30855536877360545  27.354127115989808  \\
            0.29382522673040035  27.32098775688096  \\
            0.2788106064691567  27.287848397772116  \\
            0.26361030180982387  27.254709038663268  \\
            0.24833345009360647  27.221569679554424  \\
            0.23309879696520802  27.188430320445576  \\
            0.21803368912674903  27.155290961336732  \\
            0.20327278258571652  27.122151602227884  \\
            0.18895646125480592  27.08901224311904  \\
            0.1752289699716667  27.055872884010192  \\
            0.16223627691763715  27.022733524901348  \\
            0.15012369267918518  26.9895941657925  \\
            0.1390332862933975  26.956454806683656  \\
            0.12910115187308985  26.923315447574808  \\
            0.12045459202022624  26.890176088465964  \\
            0.11320929533964025  26.857036729357116  \\
            0.10746659408154019  26.82389737024827  \\
            0.10331089345602285  26.790758011139424  \\
            0.10080736579448857  26.75761865203058  \\
            0.10000000000000003  26.724479292921732  \\
            0.10091008940381552  26.691339933812888  \\
            0.10353522929130082  26.65820057470404  \\
            0.1078488793439828  26.625061215595196  \\
            0.11380052672584035  26.591921856486348  \\
            0.12131646343922292  26.558782497377504  \\
            0.13030116800788522  26.525643138268656  \\
            0.14063925775601677  26.49250377915981  \\
            0.15219795522698026  26.459364420050964  \\
            0.1648299918577632  26.42622506094212  \\
            0.17837685499321598  26.39308570183327  \\
            0.1926722715762173  26.359946342724427  \\
            0.20754581400728594  26.32680698361558  \\
            0.22282651104888385  26.293667624506735  \\
            0.2383463492610311  26.260528265397888  \\
            0.25394355799951673  26.227388906289043  \\
            0.26946558292127265  26.194249547180195  \\
            0.2847716684412176  26.16111018807135  \\
            0.299734987733999  26.127970828962503  \\
            0.3142442786495342  26.094831469853656  \\
            0.32820496427299584  26.06169211074481  \\
            0.3415397568146859  26.028552751635964  \\
            0.35418876217109174  25.99541339252712  \\
            0.3661091191063839  25.96227403341827  \\
            0.3772742209856866  25.929134674309427  \\
            0.3876725789540664  25.89599531520058  \\
            0.3973063931896821  25.862855956091735  \\
            0.4061899033312518  25.829716596982887  \\
            0.4143475905087909  25.796577237874043  \\
            0.4218123018413933  25.763437878765195  \\
            0.4286233641561489  25.73029851965635  \\
            0.43482474744872596  25.697159160547503  \\
            0.44046333071230925  25.66401980143866  \\
            0.44558731368840704  25.63088044232981  \\
            0.4502448083165252  25.597741083220967  \\
            0.45448263363242647  25.56460172411212  \\
            0.45834532800100647  25.531462365003275  \\
        }
        ;
    \addplot[color={rgb,1:red,0.0;green,0.0;blue,0.0}, name path={a5401ee7-c9bd-49a6-bda9-2f0aa51e70d0}, area legend, fill={rgb,1:red,0.0;green,0.6056;blue,0.9787}, fill opacity={1.0}, draw opacity={1.0}, line width={0}, solid, forget plot]
        table[row sep={\\}]
        {
            \\
            1.6915428167553113  26.009772225874137  \\
            1.705498167548933  26.03999701211866  \\
            1.7196833257118687  26.070221798363185  \\
            1.734012455265582  26.10044658460771  \\
            1.7483924708758605  26.130671370852234  \\
            1.7627238724554946  26.160896157096758  \\
            1.776901759669559  26.191120943341286  \\
            1.7908170184963537  26.22134572958581  \\
            1.8043576661437453  26.251570515830334  \\
            1.8174103345709458  26.28179530207486  \\
            1.829861866886437  26.312020088319382  \\
            1.841600995283435  26.342244874563907  \\
            1.8525200642503874  26.37246966080843  \\
            1.8625167588667153  26.402694447052955  \\
            1.8714957953481965  26.43291923329748  \\
            1.8793705298784449  26.463144019542003  \\
            1.886064442320066  26.493368805786528  \\
            1.891512453722461  26.52359359203105  \\
            1.895662040616127  26.553818378275576  \\
            1.8984741147858957  26.584043164520104  \\
            1.8999236443273053  26.614267950764628  \\
            1.9  26.644492737009152  \\
            1.8987070198149343  26.674717523253676  \\
            1.8960627939936465  26.7049423094982  \\
            1.8920991814612191  26.735167095742725  \\
            1.8868610774314865  26.76539188198725  \\
            1.8804054590036947  26.795616668231773  \\
            1.8728002416706562  26.825841454476297  \\
            1.864122983984835  26.85606624072082  \\
            1.854459480191403  26.886291026965345  \\
            1.843902281379754  26.91651581320987  \\
            1.8325491847034072  26.946740599454394  \\
            1.8205017276519053  26.976965385698918  \\
            1.807863720492794  27.007190171943446  \\
            1.7947398451658412  27.03741495818797  \\
            1.781234343470441  27.067639744432494  \\
            1.7674498117134019  27.09786453067702  \\
            1.7534861134306685  27.128089316921542  \\
            1.7394394166708156  27.158314103166067  \\
            1.7254013578738587  27.18853888941059  \\
            1.711458330762055  27.218763675655115  \\
            1.6976908959626256  27.24898846189964  \\
            1.6841733053066084  27.279213248144163  \\
            1.6709731338205303  27.309438034388688  \\
            1.6581510122156051  27.33966282063321  \\
            1.6457604530078398  27.369887606877736  \\
            1.6338477640745004  27.400112393122264  \\
            1.6224520442682193  27.430337179366788  \\
            1.611605256486098  27.460561965611312  \\
            1.6013323741752068  27.490786751855836  \\
            1.5916515975382532  27.52101153810036  \\
            1.5825746356228447  27.551236324344885  \\
            1.5741070500237577  27.58146111058941  \\
            1.5662486551357035  27.611685896833933  \\
            1.5589939688393597  27.641910683078457  \\
            1.552332706290441  27.67213546932298  \\
            1.5462503082321148  27.702360255567505  \\
            1.5407284940921124  27.73258504181203  \\
            1.5357458291776003  27.762809828056554  \\
            1.5312782946465666  27.79303461430108  \\
            1.52729984869267  27.823259400545606  \\
            1.5237829675796275  27.85348418679013  \\
            1.520699155817458  27.883708973034654  \\
            1.5180194158703328  27.91393375927918  \\
            1.5157146692792582  27.944158545523702  \\
            1.5137561229025525  27.974383331768227  \\
            1.5121155760345495  28.00460811801275  \\
            1.5107656663576023  28.034832904257275  \\
            1.5096800549084288  28.0650576905018  \\
            1.5088335523924954  28.095282476746323  \\
            1.508202191161741  28.125507262990848  \\
            1.5077632488955663  28.15573204923537  \\
            1.5074952314220842  28.185956835479896  \\
            1.5073778231336263  28.216181621724424  \\
            1.5073918140543683  28.246406407968948  \\
            1.5075190127955644  28.276631194213472  \\
            1.5077421543917786  28.306855980457996  \\
            1.5080448113745786  28.33708076670252  \\
            1.508411315450147  28.367305552947045  \\
            1.5088266958602699  28.39753033919157  \\
            1.5092766389901486  28.427755125436093  \\
            1.5097474721181374  28.457979911680617  \\
            1.5102261724639152  28.48820469792514  \\
            1.5107004009667047  28.518429484169665  \\
            1.511158558596067  28.54865427041419  \\
            1.5115898615411043  28.578879056658714  \\
            1.5119844304071217  28.60910384290324  \\
            1.5123333876271343  28.639328629147766  \\
            1.512628956709176  28.66955341539229  \\
            1.5128645567121464  28.699778201636814  \\
            1.513034885477437  28.73000298788134  \\
            1.5131359856266164  28.760227774125863  \\
            1.4868640143733836  28.760227774125863  \\
            1.486965114522563  28.73000298788134  \\
            1.4871354432878536  28.699778201636814  \\
            1.487371043290824  28.66955341539229  \\
            1.4876666123728657  28.639328629147766  \\
            1.4880155695928783  28.60910384290324  \\
            1.4884101384588957  28.578879056658714  \\
            1.488841441403933  28.54865427041419  \\
            1.4892995990332953  28.518429484169665  \\
            1.4897738275360848  28.48820469792514  \\
            1.4902525278818626  28.457979911680617  \\
            1.4907233610098514  28.427755125436093  \\
            1.4911733041397301  28.39753033919157  \\
            1.491588684549853  28.367305552947045  \\
            1.4919551886254214  28.33708076670252  \\
            1.4922578456082214  28.306855980457996  \\
            1.4924809872044356  28.276631194213472  \\
            1.4926081859456317  28.246406407968948  \\
            1.4926221768663737  28.216181621724424  \\
            1.4925047685779158  28.185956835479896  \\
            1.4922367511044337  28.15573204923537  \\
            1.491797808838259  28.125507262990848  \\
            1.4911664476075046  28.095282476746323  \\
            1.4903199450915712  28.0650576905018  \\
            1.4892343336423977  28.034832904257275  \\
            1.4878844239654505  28.00460811801275  \\
            1.4862438770974475  27.974383331768227  \\
            1.4842853307207418  27.944158545523702  \\
            1.4819805841296672  27.91393375927918  \\
            1.479300844182542  27.883708973034654  \\
            1.4762170324203725  27.85348418679013  \\
            1.47270015130733  27.823259400545606  \\
            1.4687217053534334  27.79303461430108  \\
            1.4642541708223997  27.762809828056554  \\
            1.4592715059078876  27.73258504181203  \\
            1.4537496917678852  27.702360255567505  \\
            1.447667293709559  27.67213546932298  \\
            1.4410060311606403  27.641910683078457  \\
            1.4337513448642965  27.611685896833933  \\
            1.4258929499762423  27.58146111058941  \\
            1.4174253643771553  27.551236324344885  \\
            1.4083484024617468  27.52101153810036  \\
            1.3986676258247932  27.490786751855836  \\
            1.388394743513902  27.460561965611312  \\
            1.3775479557317807  27.430337179366788  \\
            1.3661522359254996  27.400112393122264  \\
            1.3542395469921602  27.369887606877736  \\
            1.3418489877843949  27.33966282063321  \\
            1.3290268661794697  27.309438034388688  \\
            1.3158266946933916  27.279213248144163  \\
            1.3023091040373744  27.24898846189964  \\
            1.288541669237945  27.218763675655115  \\
            1.2745986421261413  27.18853888941059  \\
            1.2605605833291844  27.158314103166067  \\
            1.2465138865693315  27.128089316921542  \\
            1.2325501882865981  27.09786453067702  \\
            1.218765656529559  27.067639744432494  \\
            1.2052601548341588  27.03741495818797  \\
            1.192136279507206  27.007190171943446  \\
            1.1794982723480947  26.976965385698918  \\
            1.1674508152965928  26.946740599454394  \\
            1.156097718620246  26.91651581320987  \\
            1.145540519808597  26.886291026965345  \\
            1.135877016015165  26.85606624072082  \\
            1.1271997583293438  26.825841454476297  \\
            1.1195945409963053  26.795616668231773  \\
            1.1131389225685135  26.76539188198725  \\
            1.1079008185387809  26.735167095742725  \\
            1.1039372060063535  26.7049423094982  \\
            1.1012929801850657  26.674717523253676  \\
            1.1  26.644492737009152  \\
            1.1000763556726947  26.614267950764628  \\
            1.1015258852141043  26.584043164520104  \\
            1.104337959383873  26.553818378275576  \\
            1.108487546277539  26.52359359203105  \\
            1.113935557679934  26.493368805786528  \\
            1.1206294701215551  26.463144019542003  \\
            1.1285042046518035  26.43291923329748  \\
            1.1374832411332847  26.402694447052955  \\
            1.1474799357496126  26.37246966080843  \\
            1.158399004716565  26.342244874563907  \\
            1.170138133113563  26.312020088319382  \\
            1.1825896654290542  26.28179530207486  \\
            1.1956423338562547  26.251570515830334  \\
            1.2091829815036463  26.22134572958581  \\
            1.223098240330441  26.191120943341286  \\
            1.2372761275445054  26.160896157096758  \\
            1.2516075291241395  26.130671370852234  \\
            1.265987544734418  26.10044658460771  \\
            1.2803166742881313  26.070221798363185  \\
            1.294501832451067  26.03999701211866  \\
            1.3084571832446887  26.009772225874137  \\
        }
        ;
    \addplot[color={rgb,1:red,0.0;green,0.0;blue,0.0}, name path={a5401ee7-c9bd-49a6-bda9-2f0aa51e70d0}, area legend, fill={rgb,1:red,0.0;green,0.6056;blue,0.9787}, fill opacity={1.0}, draw opacity={1.0}, line width={0}, solid, forget plot]
        table[row sep={\\}]
        {
            \\
            2.514720051351438  25.588328383529394  \\
            2.515002317012145  25.624935079321656  \\
            2.5152282860158723  25.66154177511392  \\
            2.5154044567319644  25.698148470906183  \\
            2.5155388447897264  25.734755166698445  \\
            2.5156405455746005  25.77136186249071  \\
            2.5157192436595786  25.807968558282973  \\
            2.5157847006379734  25.844575254075234  \\
            2.5158462547598424  25.8811819498675  \\
            2.515912365202925  25.917788645659762  \\
            2.515990230708793  25.954395341452024  \\
            2.5160855068796733  25.99100203724429  \\
            2.5162021390584126  26.02760873303655  \\
            2.516342318974277  26.064215428828813  \\
            2.5165065639285804  26.10082212462108  \\
            2.5166939079818667  26.13742882041334  \\
            2.5169021861546708  26.174035516205606  \\
            2.5171283857656834  26.210642211997868  \\
            2.5173690342733894  26.24724890779013  \\
            2.5176205907474727  26.283855603582396  \\
            2.5178798085452168  26.320462299374658  \\
            2.5181440398444908  26.35706899516692  \\
            2.518411458101539  26.393675690959185  \\
            2.518681181773073  26.430282386751447  \\
            2.5189532911300287  26.46688908254371  \\
            2.5192287389644608  26.503495778335974  \\
            2.5195091646969914  26.540102474128236  \\
            2.519796629121278  26.5767091699205  \\
            2.5200932931746505  26.613315865712764  \\
            2.5204010682618834  26.649922561505026  \\
            2.520721267538528  26.686529257297288  \\
            2.5210542871464754  26.723135953089553  \\
            2.521399343853436  26.759742648881815  \\
            2.5217542912187105  26.796349344674077  \\
            2.5221155307581133  26.832956040466343  \\
            2.52247802815388  26.869562736258604  \\
            2.522835437909576  26.906169432050866  \\
            2.5231803335045564  26.942776127843132  \\
            2.523504534489946  26.979382823635394  \\
            2.523799517401544  27.015989519427656  \\
            2.524056894021474  27.05259621521992  \\
            2.5242689384415007  27.089202911012183  \\
            2.524429143488973  27.125809606804445  \\
            2.524532787202512  27.16241630259671  \\
            2.52457749096368  27.199022998388973  \\
            2.5245637523587434  27.235629694181235  \\
            2.5244954376308035  27.2722363899735  \\
            2.5243802204964894  27.308843085765762  \\
            2.5242299560072388  27.345449781558024  \\
            2.5240609799558764  27.38205647735029  \\
            2.523894326039854  27.41866317314255  \\
            2.5237558546055188  27.455269868934813  \\
            2.5236762883437773  27.49187656472708  \\
            2.5236911518152234  27.52848326051934  \\
            2.5238406131624114  27.565089956311603  \\
            2.5241692277994194  27.60169665210387  \\
            2.524725585203409  27.63830334789613  \\
            2.5255618610930184  27.674910043688396  \\
            2.526733278175488  27.711516739480658  \\
            2.5282974791965227  27.74812343527292  \\
            2.5303138161806884  27.784730131065185  \\
            2.532842559500717  27.821336826857447  \\
            2.5359440298214033  27.85794352264971  \\
            2.5396776551607583  27.894550218441974  \\
            2.5441009545028135  27.931156914234236  \\
            2.5492684488487454  27.9677636100265  \\
            2.555230500610338  28.004370305818764  \\
            2.562032083145247  28.040977001611026  \\
            2.5697114842915547  28.077583697403288  \\
            2.578298951196249  28.114190393195553  \\
            2.5878152886586467  28.150797088987815  \\
            2.5982704295962837  28.187403784780077  \\
            2.6096620038956355  28.224010480572343  \\
            2.6219739404683278  28.260617176364605  \\
            2.6351751462627133  28.297223872156867  \\
            2.649218314602457  28.333830567949132  \\
            2.664038922753004  28.370437263741394  \\
            2.679554484215044  28.407043959533656  \\
            2.6956641240849684  28.44365065532592  \\
            2.7122485451630958  28.480257351118183  \\
            2.7291704477448624  28.516864046910445  \\
            2.746275456835504  28.55347074270271  \\
            2.7633935968010674  28.590077438494973  \\
            2.780341335440189  28.626684134287235  \\
            2.7969241976958754  28.6632908300795  \\
            2.8129399246100424  28.699897525871762  \\
            2.8281821268269463  28.736504221664024  \\
            2.842444355371039  28.77311091745629  \\
            2.8555244870990966  28.80971761324855  \\
            2.8672292997394724  28.846324309040813  \\
            2.8773790933042536  28.88293100483308  \\
            2.8858122022432227  28.91953770062534  \\
            2.89238923707929  28.956144396417603  \\
            2.8969968961413675  28.99275109220987  \\
            2.899551197685561  29.02935778800213  \\
            2.9  29.065964483794392  \\
            2.898324701384803  29.102571179586658  \\
            2.89454104210651  29.13917787537892  \\
            2.8886989650815402  29.175784571171185  \\
            2.8808815293836516  29.212391266963447  \\
            2.8712029087452424  29.24899796275571  \\
            2.8598055440162713  29.285604658547975  \\
            2.8468565521081977  29.322211354340237  \\
            2.8325435225269056  29.3588180501325  \\
            2.817069854737451  29.395424745924764  \\
            2.800649804252033  29.432031441717026  \\
            2.7835034118984465  29.468638137509288  \\
            2.765851489106506  29.505244833301553  \\
            2.7479108226241045  29.541851529093815  \\
            2.729889745663801  29.578458224886077  \\
            2.7119842002760937  29.615064920678343  \\
            2.6943743892126615  29.651671616470605  \\
            2.3056256107873385  29.651671616470605  \\
            2.2880157997239063  29.615064920678343  \\
            2.270110254336199  29.578458224886077  \\
            2.2520891773758955  29.541851529093815  \\
            2.234148510893494  29.505244833301553  \\
            2.2164965881015535  29.468638137509288  \\
            2.199350195747967  29.432031441717026  \\
            2.182930145262549  29.395424745924764  \\
            2.1674564774730944  29.3588180501325  \\
            2.1531434478918023  29.322211354340237  \\
            2.1401944559837287  29.285604658547975  \\
            2.1287970912547576  29.24899796275571  \\
            2.1191184706163484  29.212391266963447  \\
            2.1113010349184598  29.175784571171185  \\
            2.10545895789349  29.13917787537892  \\
            2.101675298615197  29.102571179586658  \\
            2.1  29.065964483794392  \\
            2.100448802314439  29.02935778800213  \\
            2.1030031038586325  28.99275109220987  \\
            2.10761076292071  28.956144396417603  \\
            2.1141877977567773  28.91953770062534  \\
            2.1226209066957464  28.88293100483308  \\
            2.1327707002605276  28.846324309040813  \\
            2.1444755129009034  28.80971761324855  \\
            2.157555644628961  28.77311091745629  \\
            2.1718178731730537  28.736504221664024  \\
            2.1870600753899576  28.699897525871762  \\
            2.2030758023041246  28.6632908300795  \\
            2.219658664559811  28.626684134287235  \\
            2.2366064031989326  28.590077438494973  \\
            2.253724543164496  28.55347074270271  \\
            2.2708295522551376  28.516864046910445  \\
            2.2877514548369042  28.480257351118183  \\
            2.3043358759150316  28.44365065532592  \\
            2.320445515784956  28.407043959533656  \\
            2.335961077246996  28.370437263741394  \\
            2.350781685397543  28.333830567949132  \\
            2.3648248537372867  28.297223872156867  \\
            2.3780260595316722  28.260617176364605  \\
            2.3903379961043645  28.224010480572343  \\
            2.4017295704037163  28.187403784780077  \\
            2.4121847113413533  28.150797088987815  \\
            2.421701048803751  28.114190393195553  \\
            2.4302885157084453  28.077583697403288  \\
            2.437967916854753  28.040977001611026  \\
            2.444769499389662  28.004370305818764  \\
            2.4507315511512546  27.9677636100265  \\
            2.4558990454971865  27.931156914234236  \\
            2.4603223448392417  27.894550218441974  \\
            2.4640559701785967  27.85794352264971  \\
            2.467157440499283  27.821336826857447  \\
            2.4696861838193116  27.784730131065185  \\
            2.4717025208034773  27.74812343527292  \\
            2.473266721824512  27.711516739480658  \\
            2.4744381389069816  27.674910043688396  \\
            2.475274414796591  27.63830334789613  \\
            2.4758307722005806  27.60169665210387  \\
            2.4761593868375886  27.565089956311603  \\
            2.4763088481847766  27.52848326051934  \\
            2.4763237116562227  27.49187656472708  \\
            2.4762441453944812  27.455269868934813  \\
            2.476105673960146  27.41866317314255  \\
            2.4759390200441236  27.38205647735029  \\
            2.4757700439927612  27.345449781558024  \\
            2.4756197795035106  27.308843085765762  \\
            2.4755045623691965  27.2722363899735  \\
            2.4754362476412566  27.235629694181235  \\
            2.47542250903632  27.199022998388973  \\
            2.475467212797488  27.16241630259671  \\
            2.475570856511027  27.125809606804445  \\
            2.4757310615584993  27.089202911012183  \\
            2.475943105978526  27.05259621521992  \\
            2.476200482598456  27.015989519427656  \\
            2.476495465510054  26.979382823635394  \\
            2.4768196664954436  26.942776127843132  \\
            2.477164562090424  26.906169432050866  \\
            2.47752197184612  26.869562736258604  \\
            2.4778844692418867  26.832956040466343  \\
            2.4782457087812895  26.796349344674077  \\
            2.478600656146564  26.759742648881815  \\
            2.4789457128535246  26.723135953089553  \\
            2.479278732461472  26.686529257297288  \\
            2.4795989317381166  26.649922561505026  \\
            2.4799067068253495  26.613315865712764  \\
            2.480203370878722  26.5767091699205  \\
            2.4804908353030086  26.540102474128236  \\
            2.4807712610355392  26.503495778335974  \\
            2.4810467088699713  26.46688908254371  \\
            2.481318818226927  26.430282386751447  \\
            2.481588541898461  26.393675690959185  \\
            2.4818559601555092  26.35706899516692  \\
            2.4821201914547832  26.320462299374658  \\
            2.4823794092525273  26.283855603582396  \\
            2.4826309657266106  26.24724890779013  \\
            2.4828716142343166  26.210642211997868  \\
            2.4830978138453292  26.174035516205606  \\
            2.4833060920181333  26.13742882041334  \\
            2.4834934360714196  26.10082212462108  \\
            2.483657681025723  26.064215428828813  \\
            2.4837978609415874  26.02760873303655  \\
            2.4839144931203267  25.99100203724429  \\
            2.484009769291207  25.954395341452024  \\
            2.484087634797075  25.917788645659762  \\
            2.4841537452401576  25.8811819498675  \\
            2.4842152993620266  25.844575254075234  \\
            2.4842807563404214  25.807968558282973  \\
            2.4843594544253995  25.77136186249071  \\
            2.4844611552102736  25.734755166698445  \\
            2.4845955432680356  25.698148470906183  \\
            2.4847717139841277  25.66154177511392  \\
            2.484997682987855  25.624935079321656  \\
            2.485279948648562  25.588328383529394  \\
        }
        ;
    \addplot[color={rgb,1:red,0.0;green,0.0;blue,0.0}, name path={dae1bd37-787e-407c-93ca-93e9ee143b1b}, area legend, fill={rgb,1:red,0.8889;green,0.4356;blue,0.2781}, fill opacity={0.75}, draw opacity={1.0}, line width={1}, solid, forget plot]
        table[row sep={\\}]
        {
            \\
            0.5  26.15  \\
            0.3  26.15  \\
            0.7  26.15  \\
            0.5  26.15  \\
            0.5  26.552500000000002  \\
        }
        ;
    \addplot[color={rgb,1:red,0.0;green,0.0;blue,0.0}, name path={dae1bd37-787e-407c-93ca-93e9ee143b1b}, area legend, fill={rgb,1:red,0.8889;green,0.4356;blue,0.2781}, fill opacity={0.75}, draw opacity={1.0}, line width={1}, solid, forget plot]
        table[row sep={\\}]
        {
            \\
            0.9  26.552500000000002  \\
            0.9  26.705  \\
            0.09999999999999998  26.705  \\
            0.09999999999999998  26.552500000000002  \\
            0.9  26.552500000000002  \\
            0.9  26.705  \\
        }
        ;
    \addplot[color={rgb,1:red,0.0;green,0.0;blue,0.0}, name path={dae1bd37-787e-407c-93ca-93e9ee143b1b}, area legend, fill={rgb,1:red,0.8889;green,0.4356;blue,0.2781}, fill opacity={0.75}, draw opacity={1.0}, line width={1}, solid, forget plot]
        table[row sep={\\}]
        {
            \\
            0.9  26.97  \\
            0.09999999999999998  26.97  \\
            0.09999999999999998  26.705  \\
            0.9  26.705  \\
            0.9  26.97  \\
            0.5  26.97  \\
        }
        ;
    \addplot[color={rgb,1:red,0.0;green,0.0;blue,0.0}, name path={dae1bd37-787e-407c-93ca-93e9ee143b1b}, area legend, fill={rgb,1:red,0.8889;green,0.4356;blue,0.2781}, fill opacity={0.75}, draw opacity={1.0}, line width={1}, solid, forget plot]
        table[row sep={\\}]
        {
            \\
            0.5  27.52  \\
            0.3  27.52  \\
            0.7  27.52  \\
            0.5  27.52  \\
            0.5  26.97  \\
        }
        ;
    \addplot[color={rgb,1:red,0.0;green,0.0;blue,0.0}, name path={dae1bd37-787e-407c-93ca-93e9ee143b1b}, area legend, fill={rgb,1:red,0.8889;green,0.4356;blue,0.2781}, fill opacity={0.75}, draw opacity={1.0}, line width={1}, solid, forget plot]
        table[row sep={\\}]
        {
            \\
            1.5  25.98  \\
            1.3  25.98  \\
            1.7  25.98  \\
            1.5  25.98  \\
            1.5  26.4425  \\
        }
        ;
    \addplot[color={rgb,1:red,0.0;green,0.0;blue,0.0}, name path={dae1bd37-787e-407c-93ca-93e9ee143b1b}, area legend, fill={rgb,1:red,0.8889;green,0.4356;blue,0.2781}, fill opacity={0.75}, draw opacity={1.0}, line width={1}, solid, forget plot]
        table[row sep={\\}]
        {
            \\
            1.9  26.4425  \\
            1.9  26.625  \\
            1.1  26.625  \\
            1.1  26.4425  \\
            1.9  26.4425  \\
            1.9  26.625  \\
        }
        ;
    \addplot[color={rgb,1:red,0.0;green,0.0;blue,0.0}, name path={dae1bd37-787e-407c-93ca-93e9ee143b1b}, area legend, fill={rgb,1:red,0.8889;green,0.4356;blue,0.2781}, fill opacity={0.75}, draw opacity={1.0}, line width={1}, solid, forget plot]
        table[row sep={\\}]
        {
            \\
            1.9  26.795  \\
            1.1  26.795  \\
            1.1  26.625  \\
            1.9  26.625  \\
            1.9  26.795  \\
            1.5  26.795  \\
        }
        ;
    \addplot[color={rgb,1:red,0.0;green,0.0;blue,0.0}, name path={dae1bd37-787e-407c-93ca-93e9ee143b1b}, area legend, fill={rgb,1:red,0.8889;green,0.4356;blue,0.2781}, fill opacity={0.75}, draw opacity={1.0}, line width={1}, solid, forget plot]
        table[row sep={\\}]
        {
            \\
            1.5  27.22  \\
            1.3  27.22  \\
            1.7  27.22  \\
            1.5  27.22  \\
            1.5  26.795  \\
        }
        ;
    \addplot[color={rgb,1:red,0.0;green,0.0;blue,0.0}, name path={dae1bd37-787e-407c-93ca-93e9ee143b1b}, area legend, fill={rgb,1:red,0.8889;green,0.4356;blue,0.2781}, fill opacity={0.75}, draw opacity={1.0}, line width={1}, solid, forget plot]
        table[row sep={\\}]
        {
            \\
            2.5  28.32  \\
            2.3  28.32  \\
            2.7  28.32  \\
            2.5  28.32  \\
            2.5  28.765  \\
        }
        ;
    \addplot[color={rgb,1:red,0.0;green,0.0;blue,0.0}, name path={dae1bd37-787e-407c-93ca-93e9ee143b1b}, area legend, fill={rgb,1:red,0.8889;green,0.4356;blue,0.2781}, fill opacity={0.75}, draw opacity={1.0}, line width={1}, solid, forget plot]
        table[row sep={\\}]
        {
            \\
            2.9  28.765  \\
            2.9  29.01  \\
            2.1  29.01  \\
            2.1  28.765  \\
            2.9  28.765  \\
            2.9  29.01  \\
        }
        ;
    \addplot[color={rgb,1:red,0.0;green,0.0;blue,0.0}, name path={dae1bd37-787e-407c-93ca-93e9ee143b1b}, area legend, fill={rgb,1:red,0.8889;green,0.4356;blue,0.2781}, fill opacity={0.75}, draw opacity={1.0}, line width={1}, solid, forget plot]
        table[row sep={\\}]
        {
            \\
            2.9  29.200000000000003  \\
            2.1  29.200000000000003  \\
            2.1  29.01  \\
            2.9  29.01  \\
            2.9  29.200000000000003  \\
            2.5  29.200000000000003  \\
        }
        ;
    \addplot[color={rgb,1:red,0.0;green,0.0;blue,0.0}, name path={dae1bd37-787e-407c-93ca-93e9ee143b1b}, area legend, fill={rgb,1:red,0.8889;green,0.4356;blue,0.2781}, fill opacity={0.75}, draw opacity={1.0}, line width={1}, solid, forget plot]
        table[row sep={\\}]
        {
            \\
            2.5  29.66  \\
            2.3  29.66  \\
            2.7  29.66  \\
            2.5  29.66  \\
            2.5  29.200000000000003  \\
        }
        ;
    \addplot[color={rgb,1:red,0.8889;green,0.4356;blue,0.2781}, name path={b1b2d60e-0433-4b6d-9c2c-09b173bc68b7}, only marks, draw opacity={1.0}, line width={0}, solid, mark={*}, mark size={3.0 pt}, mark repeat={1}, mark options={color={rgb,1:red,0.0;green,0.0;blue,0.0}, draw opacity={1.0}, fill={rgb,1:red,0.8889;green,0.4356;blue,0.2781}, fill opacity={1.0}, line width={0.75}, rotate={0}, solid}, forget plot]
        table[row sep={\\}]
        {
            \\
            0.5  25.51  \\
            0.5  28.9  \\
            0.5  25.78  \\
            1.5  28.79  \\
            2.5  27.45  \\
            2.5  26.38  \\
            2.5  27.04  \\
            2.5  25.58  \\
        }
        ;
    \addplot[color={rgb,1:red,0.8889;green,0.4356;blue,0.2781}, name path={0ad018e2-ab23-439c-b10c-ba13eba224af}, draw opacity={1.0}, line width={0}, solid, forget plot]
        table[row sep={\\}]
        {
            \\
            0.5  26.15  \\
            0.3  26.15  \\
            0.7  26.15  \\
            0.5  26.15  \\
            0.5  26.552500000000002  \\
        }
        ;
    \addplot[color={rgb,1:red,0.8889;green,0.4356;blue,0.2781}, name path={0ad018e2-ab23-439c-b10c-ba13eba224af}, draw opacity={1.0}, line width={0}, solid, forget plot]
        table[row sep={\\}]
        {
            \\
            0.9  26.552500000000002  \\
            0.9  26.705  \\
            0.09999999999999998  26.705  \\
            0.09999999999999998  26.552500000000002  \\
            0.9  26.552500000000002  \\
            0.9  26.705  \\
        }
        ;
    \addplot[color={rgb,1:red,0.8889;green,0.4356;blue,0.2781}, name path={0ad018e2-ab23-439c-b10c-ba13eba224af}, draw opacity={1.0}, line width={0}, solid, forget plot]
        table[row sep={\\}]
        {
            \\
            0.9  26.97  \\
            0.09999999999999998  26.97  \\
            0.09999999999999998  26.705  \\
            0.9  26.705  \\
            0.9  26.97  \\
            0.5  26.97  \\
        }
        ;
    \addplot[color={rgb,1:red,0.8889;green,0.4356;blue,0.2781}, name path={0ad018e2-ab23-439c-b10c-ba13eba224af}, draw opacity={1.0}, line width={0}, solid, forget plot]
        table[row sep={\\}]
        {
            \\
            0.5  27.52  \\
            0.3  27.52  \\
            0.7  27.52  \\
            0.5  27.52  \\
            0.5  26.97  \\
        }
        ;
    \addplot[color={rgb,1:red,0.8889;green,0.4356;blue,0.2781}, name path={0ad018e2-ab23-439c-b10c-ba13eba224af}, draw opacity={1.0}, line width={0}, solid, forget plot]
        table[row sep={\\}]
        {
            \\
            1.5  25.98  \\
            1.3  25.98  \\
            1.7  25.98  \\
            1.5  25.98  \\
            1.5  26.4425  \\
        }
        ;
    \addplot[color={rgb,1:red,0.8889;green,0.4356;blue,0.2781}, name path={0ad018e2-ab23-439c-b10c-ba13eba224af}, draw opacity={1.0}, line width={0}, solid, forget plot]
        table[row sep={\\}]
        {
            \\
            1.9  26.4425  \\
            1.9  26.625  \\
            1.1  26.625  \\
            1.1  26.4425  \\
            1.9  26.4425  \\
            1.9  26.625  \\
        }
        ;
    \addplot[color={rgb,1:red,0.8889;green,0.4356;blue,0.2781}, name path={0ad018e2-ab23-439c-b10c-ba13eba224af}, draw opacity={1.0}, line width={0}, solid, forget plot]
        table[row sep={\\}]
        {
            \\
            1.9  26.795  \\
            1.1  26.795  \\
            1.1  26.625  \\
            1.9  26.625  \\
            1.9  26.795  \\
            1.5  26.795  \\
        }
        ;
    \addplot[color={rgb,1:red,0.8889;green,0.4356;blue,0.2781}, name path={0ad018e2-ab23-439c-b10c-ba13eba224af}, draw opacity={1.0}, line width={0}, solid, forget plot]
        table[row sep={\\}]
        {
            \\
            1.5  27.22  \\
            1.3  27.22  \\
            1.7  27.22  \\
            1.5  27.22  \\
            1.5  26.795  \\
        }
        ;
    \addplot[color={rgb,1:red,0.8889;green,0.4356;blue,0.2781}, name path={0ad018e2-ab23-439c-b10c-ba13eba224af}, draw opacity={1.0}, line width={0}, solid, forget plot]
        table[row sep={\\}]
        {
            \\
            2.5  28.32  \\
            2.3  28.32  \\
            2.7  28.32  \\
            2.5  28.32  \\
            2.5  28.765  \\
        }
        ;
    \addplot[color={rgb,1:red,0.8889;green,0.4356;blue,0.2781}, name path={0ad018e2-ab23-439c-b10c-ba13eba224af}, draw opacity={1.0}, line width={0}, solid, forget plot]
        table[row sep={\\}]
        {
            \\
            2.9  28.765  \\
            2.9  29.01  \\
            2.1  29.01  \\
            2.1  28.765  \\
            2.9  28.765  \\
            2.9  29.01  \\
        }
        ;
    \addplot[color={rgb,1:red,0.8889;green,0.4356;blue,0.2781}, name path={0ad018e2-ab23-439c-b10c-ba13eba224af}, draw opacity={1.0}, line width={0}, solid, forget plot]
        table[row sep={\\}]
        {
            \\
            2.9  29.200000000000003  \\
            2.1  29.200000000000003  \\
            2.1  29.01  \\
            2.9  29.01  \\
            2.9  29.200000000000003  \\
            2.5  29.200000000000003  \\
        }
        ;
    \addplot[color={rgb,1:red,0.8889;green,0.4356;blue,0.2781}, name path={0ad018e2-ab23-439c-b10c-ba13eba224af}, draw opacity={1.0}, line width={0}, solid, forget plot]
        table[row sep={\\}]
        {
            \\
            2.5  29.66  \\
            2.3  29.66  \\
            2.7  29.66  \\
            2.5  29.66  \\
            2.5  29.200000000000003  \\
        }
        ;
    \addplot[color={rgb,1:red,0.2422;green,0.6433;blue,0.3044}, name path={4ae6c5a9-a081-4268-8765-af2edc9a51c0}, only marks, draw opacity={1.0}, line width={0}, solid, mark={*}, mark size={0.75 pt}, mark repeat={1}, mark options={color={rgb,1:red,0.0;green,0.0;blue,0.0}, draw opacity={1.0}, fill={rgb,1:red,0.0;green,0.0;blue,0.0}, fill opacity={1.0}, line width={0.75}, rotate={0}, solid}, forget plot]
        table[row sep={\\}]
        {
            \\
            0.5842868225371496  26.59  \\
            0.6565653104841571  26.65  \\
            0.6712021390915928  26.55  \\
            0.47230983946341293  26.15  \\
            0.5070594576002864  26.56  \\
            0.20792919872993365  26.65  \\
            0.6123100842622189  27.2  \\
            0.2350013068551703  26.61  \\
            0.5381337751936093  26.97  \\
            0.3930161036675299  26.83  \\
            0.477920872402955  27.04  \\
            0.6697562664054677  26.93  \\
            0.3867309272743765  26.41  \\
            0.2766134990550384  26.78  \\
            0.5145641700933834  27.27  \\
            0.36936565138984545  27.04  \\
            0.5610307566855472  26.77  \\
            0.2481599334454292  26.7  \\
            0.48320249386996106  25.51  \\
            0.457372699989587  26.78  \\
            0.5844327412437986  26.28  \\
            0.5212448311510757  26.47  \\
            0.629116176822968  26.71  \\
            0.5485975238406571  26.28  \\
            0.28010513440392537  26.58  \\
            0.712676424127362  26.65  \\
            0.47488774687912233  27.27  \\
            0.4886449279255596  28.9  \\
            0.522038333865595  27.15  \\
            0.11312273516262294  26.64  \\
            0.4443189309436243  27.12  \\
            0.7955523183617604  26.53  \\
            0.5111753437953331  27.05  \\
            0.4173749928062692  26.97  \\
            0.4772178581064832  27.52  \\
            0.42384818847057487  26.79  \\
            0.4193118030411712  26.3  \\
            0.38657413064505514  26.54  \\
            0.8331415431868212  26.6  \\
            0.2783882559824584  26.81  \\
            0.5101015596443662  25.78  \\
            0.72611709807782  26.71  \\
            1.3463472867629487  27.06  \\
            1.429338442177191  27.16  \\
            1.7023546589546614  26.6  \\
            1.8125921355577639  26.5  \\
            1.4447331410034132  26.64  \\
            1.5477135280006287  26.87  \\
            1.712111120267304  26.61  \\
            1.5660854273152303  26.34  \\
            1.4681938405337411  25.98  \\
            1.4837301169903605  26.67  \\
            1.4516734302942718  26.09  \\
            1.4793466278118383  27.12  \\
            1.6634442619989418  26.37  \\
            1.5727367444394342  26.74  \\
            1.3279917380743755  26.45  \\
            1.862685879025133  26.58  \\
            1.615330659284234  27.14  \\
            1.5600980115068004  27.0  \\
            1.285134163387931  26.59  \\
            1.5630356227945212  26.26  \\
            1.5347985259731924  26.16  \\
            1.6351278811574583  26.7  \\
            1.5014432416078047  26.73  \\
            1.4428494760590618  26.42  \\
            1.6896187951474189  26.48  \\
            1.3765109228893933  26.27  \\
            1.484345592880314  27.04  \\
            1.422522016655559  27.22  \\
            1.2120553466416044  26.77  \\
            1.5715050629277771  26.55  \\
            1.5719853692149839  26.77  \\
            1.694974175051732  26.7  \\
            1.585180128461031  26.6  \\
            1.7905144803681545  26.76  \\
            1.8505734123710333  26.6  \\
            1.2838588232873303  26.7  \\
            1.4859583415265867  28.79  \\
            1.6185640122598688  27.1  \\
            1.3343965274388918  26.36  \\
            1.5024088861180416  26.11  \\
            2.288547973345415  29.4  \\
            2.5548993128778243  29.63  \\
            2.4974538275522136  27.45  \\
            2.4843205414435765  26.38  \\
            2.5146573019561798  28.86  \\
            2.2418425268150433  28.92  \\
            2.5152468527026155  28.75  \\
            2.3459374697142747  29.33  \\
            2.4436698216840758  29.0  \\
            2.8943082307733334  29.04  \\
            2.617848644604692  29.01  \\
            2.6259552366345997  29.37  \\
            2.445218054571243  29.32  \\
            2.3875817497975844  28.67  \\
            2.296972317319317  29.11  \\
            2.5433991622821175  29.19  \\
            2.5365153652617205  29.66  \\
            2.504492947434096  29.17  \\
            2.468689687621263  28.71  \\
            2.299726529875031  29.19  \\
            2.714723230172434  28.95  \\
            2.829195538568128  29.09  \\
            2.393661310660919  29.43  \\
            2.323916375105398  29.21  \\
            2.659910468397425  29.14  \\
            2.315124209225753  28.78  \\
            2.632710179033294  29.33  \\
            2.7687151894767936  29.14  \\
            2.533122693094627  29.23  \\
            2.6055503974849126  28.82  \\
            2.527684562568003  28.32  \\
            2.560894809052902  28.64  \\
            2.502021412580246  28.52  \\
            2.4757388334010364  28.44  \\
            2.4725657532074297  29.41  \\
            2.4770006052271376  27.04  \\
            2.737203126597415  29.04  \\
            2.3441318286538406  28.94  \\
            2.4941350993466544  28.86  \\
            2.4813856681156996  25.58  \\
            2.619093569916327  28.97  \\
            2.413138652397628  28.84  \\
            2.7932539779063994  29.14  \\
        }
        ;
\end{axis}
\end{tikzpicture}
