\begin{tikzpicture}[/tikz/background rectangle/.style={fill={rgb,1:red,1.0;green,1.0;blue,1.0}, draw opacity={1.0}}, show background rectangle]
\begin{axis}[point meta max={nan}, point meta min={nan}, legend cell align={left}, legend columns={1}, title={}, title style={at={{(0.5,1)}}, anchor={south}, font={{\fontsize{14 pt}{18.2 pt}\selectfont}}, color={rgb,1:red,0.0;green,0.0;blue,0.0}, draw opacity={1.0}, rotate={0.0}}, legend style={color={rgb,1:red,0.0;green,0.0;blue,0.0}, draw opacity={1.0}, line width={1}, solid, fill={rgb,1:red,1.0;green,1.0;blue,1.0}, fill opacity={1.0}, text opacity={1.0}, font={{\fontsize{8 pt}{10.4 pt}\selectfont}}, text={rgb,1:red,0.0;green,0.0;blue,0.0}, cells={anchor={center}}, at={(1.02, 1)}, anchor={north west}}, axis background/.style={fill={rgb,1:red,1.0;green,1.0;blue,1.0}, opacity={1.0}}, anchor={north west}, xshift={1.0mm}, yshift={-1.0mm}, width={145.4mm}, height={99.6mm}, scaled x ticks={false}, xlabel={}, x tick style={color={rgb,1:red,0.0;green,0.0;blue,0.0}, opacity={1.0}}, x tick label style={color={rgb,1:red,0.0;green,0.0;blue,0.0}, opacity={1.0}, rotate={0}}, xlabel style={at={(ticklabel cs:0.5)}, anchor=near ticklabel, at={{(ticklabel cs:0.5)}}, anchor={near ticklabel}, font={{\fontsize{11 pt}{14.3 pt}\selectfont}}, color={rgb,1:red,0.0;green,0.0;blue,0.0}, draw opacity={1.0}, rotate={0.0}}, xmajorgrids={true}, xmin={0.015999999999999986}, xmax={2.984}, xtick={{0.5,1.5,2.5}}, xticklabels={{$BBQMeatlovers$,$Hawaiian$,$Supreme$}}, xtick align={inside}, xticklabel style={font={{\fontsize{8 pt}{10.4 pt}\selectfont}}, color={rgb,1:red,0.0;green,0.0;blue,0.0}, draw opacity={1.0}, rotate={0.0}}, x grid style={color={rgb,1:red,0.0;green,0.0;blue,0.0}, draw opacity={0.1}, line width={0.5}, solid}, axis x line*={left}, x axis line style={color={rgb,1:red,0.0;green,0.0;blue,0.0}, draw opacity={1.0}, line width={1}, solid}, scaled y ticks={false}, ylabel={$D \text{ (cm)}$}, y tick style={color={rgb,1:red,0.0;green,0.0;blue,0.0}, opacity={1.0}}, y tick label style={color={rgb,1:red,0.0;green,0.0;blue,0.0}, opacity={1.0}, rotate={0}}, ylabel style={at={(ticklabel cs:0.5)}, anchor=near ticklabel, at={{(ticklabel cs:0.5)}}, anchor={near ticklabel}, font={{\fontsize{11 pt}{14.3 pt}\selectfont}}, color={rgb,1:red,0.0;green,0.0;blue,0.0}, draw opacity={1.0}, rotate={0.0}}, ymajorgrids={true}, ymin={25.3855}, ymax={29.7845}, ytick={{26.0,27.0,28.0,29.0}}, yticklabels={{$26$,$27$,$28$,$29$}}, ytick align={inside}, yticklabel style={font={{\fontsize{8 pt}{10.4 pt}\selectfont}}, color={rgb,1:red,0.0;green,0.0;blue,0.0}, draw opacity={1.0}, rotate={0.0}}, y grid style={color={rgb,1:red,0.0;green,0.0;blue,0.0}, draw opacity={0.1}, line width={0.5}, solid}, axis y line*={left}, y axis line style={color={rgb,1:red,0.0;green,0.0;blue,0.0}, draw opacity={1.0}, line width={1}, solid}, colorbar={false}]
    \addplot[color={rgb,1:red,0.0;green,0.0;blue,0.0}, name path={13d90eff-69f9-454f-8e1a-aa3b041ad9a2}, area legend, fill={rgb,1:red,0.0;green,0.6056;blue,0.9787}, fill opacity={1.0}, draw opacity={1.0}, line width={0}, solid, forget plot]
        table[row sep={\\}]
        {
            \\
            0.5508782171085028  25.527172604634924  \\
            0.5564972557085687  25.56398030545231  \\
            0.5627197966641814  25.600788006269703  \\
            0.5696018222099328  25.63759570708709  \\
            0.5771970479819148  25.674403407904478  \\
            0.5855546914189029  25.71121110872187  \\
            0.5947170573062931  25.748018809539257  \\
            0.6047170190645681  25.784826510356645  \\
            0.615575486950734  25.821634211174032  \\
            0.6272989637802462  25.858441911991424  \\
            0.6398772944763109  25.89524961280881  \\
            0.6532817172156722  25.9320573136262  \\
            0.667463320796025  25.96886501444359  \\
            0.6823520048755654  26.005672715260978  \\
            0.6978560268705727  26.042480416078366  \\
            0.7138622016743597  26.079288116895754  \\
            0.7302367983333795  26.116095817713145  \\
            0.7468271519867171  26.152903518530533  \\
            0.7634639806180806  26.18971121934792  \\
            0.7799643656373143  26.22651892016531  \\
            0.7961353244150329  26.2633266209827  \\
            0.8117778732675243  26.300134321800087  \\
            0.8266914527925745  26.336942022617478  \\
            0.8406785656758788  26.373749723434866  \\
            0.8535494617917254  26.410557424252254  \\
            0.8651266980103575  26.44736512506964  \\
            0.875249401574402  26.484172825887033  \\
            0.8837770766366979  26.52098052670442  \\
            0.8905928133256469  26.557788227521808  \\
            0.8956057865880622  26.5945959283392  \\
            0.8987529664454508  26.631403629156587  \\
            0.9  26.668211329973975  \\
            0.8993412659355464  26.705019030791366  \\
            0.8967991415692086  26.741826731608754  \\
            0.8924225579629629  26.77863443242614  \\
            0.8862849477502337  26.81544213324353  \\
            0.8784817112634519  26.85224983406092  \\
            0.869127338087987  26.889057534878308  \\
            0.8583523229834649  26.925865235695696  \\
            0.8463000077417502  26.962672936513087  \\
            0.8331234653287407  26.999480637330475  \\
            0.8189825215666922  27.036288338147862  \\
            0.8040409850581538  27.07309603896525  \\
            0.7884641305889384  27.10990373978264  \\
            0.7724164573095791  27.14671144060003  \\
            0.7560597226375771  27.183519141417417  \\
            0.7395512375201909  27.220326842234808  \\
            0.7230423992148973  27.257134543052196  \\
            0.7066774341001968  27.293942243869584  \\
            0.690592324545945  27.330749944686975  \\
            0.6749138993094048  27.367557645504363  \\
            0.6597590746698738  27.40436534632175  \\
            0.6452342418174297  27.441173047139138  \\
            0.6314348032057819  27.47798074795653  \\
            0.6184448652988062  27.514788448773917  \\
            0.6063370964758685  27.551596149591305  \\
            0.5951727564549479  27.588403850408696  \\
            0.5850018976596997  27.625211551226084  \\
            0.5758637302329663  27.66201925204347  \\
            0.5677871320289063  27.698826952860863  \\
            0.5607912742932549  27.73563465367825  \\
            0.5548863243295257  27.772442354495638  \\
            0.5500741795981894  27.809250055313026  \\
            0.5463491844808038  27.846057756130417  \\
            0.543698782036949  27.882865456947805  \\
            0.5421040586897846  27.919673157765192  \\
            0.5415401496035963  27.956480858582584  \\
            0.5419764858126743  27.99328855939997  \\
            0.5433768797981707  28.03009626021736  \\
            0.5456994628045905  28.06690396103475  \\
            0.5488965032420853  28.103711661852138  \\
            0.552914149570916  28.140519362669526  \\
            0.5576921518216508  28.177327063486914  \\
            0.5631636223744192  28.214134764304305  \\
            0.5692548981895418  28.250942465121692  \\
            0.5758855631657649  28.28775016593908  \\
            0.5829686809519802  28.32455786675647  \\
            0.5904112760055269  28.36136556757386  \\
            0.5981150849587135  28.398173268391247  \\
            0.6059775826449716  28.434980969208635  \\
            0.6138932687911722  28.471788670026026  \\
            0.6217551837547147  28.508596370843414  \\
            0.629456606021883  28.5454040716608  \\
            0.636892871539637  28.582211772478193  \\
            0.6439632461111421  28.61901947329558  \\
            0.6505727775208641  28.655827174112968  \\
            0.6566340539198225  28.69263487493036  \\
            0.6620687991383009  28.729442575747747  \\
            0.6668092435719568  28.766250276565135  \\
            0.6707992204581179  28.803057977382522  \\
            0.6739949509148087  28.839865678199914  \\
            0.6763654961561544  28.8766733790173  \\
            0.677892870894489  28.91348107983469  \\
            0.6785718271875951  28.95028878065208  \\
            0.6784093320572296  28.987096481469468  \\
            0.6774237743707523  29.023904182286856  \\
            0.6756439461587987  29.060711883104247  \\
            0.6731078503170669  29.097519583921635  \\
            0.6698613902643052  29.134327284739022  \\
            0.6659569975420729  29.17113498555641  \\
            0.6614522506735953  29.2079426863738  \\
            0.6564085331607624  29.24475038719119  \\
            0.6508897707693098  29.281558088008577  \\
            0.6449612788529069  29.318365788825968  \\
            0.6386887401203593  29.355173489643356  \\
            0.6321373227326306  29.391981190460744  \\
            0.6253709386995706  29.42878889127813  \\
            0.6184516339354313  29.465596592095523  \\
            0.6114390946070907  29.50240429291291  \\
            0.6043902499723419  29.539211993730298  \\
            0.5973589499481031  29.57601969454769  \\
            0.5903956961318377  29.612827395365077  \\
            0.40960430386816227  29.612827395365077  \\
            0.4026410500518969  29.57601969454769  \\
            0.395609750027658  29.539211993730298  \\
            0.38856090539290933  29.50240429291291  \\
            0.38154836606456866  29.465596592095523  \\
            0.3746290613004294  29.42878889127813  \\
            0.36786267726736943  29.391981190460744  \\
            0.36131125987964074  29.355173489643356  \\
            0.3550387211470931  29.318365788825968  \\
            0.34911022923069024  29.281558088008577  \\
            0.3435914668392376  29.24475038719119  \\
            0.33854774932640475  29.2079426863738  \\
            0.33404300245792706  29.17113498555641  \\
            0.33013860973569475  29.134327284739022  \\
            0.3268921496829331  29.097519583921635  \\
            0.32435605384120125  29.060711883104247  \\
            0.3225762256292477  29.023904182286856  \\
            0.32159066794277036  28.987096481469468  \\
            0.3214281728124049  28.95028878065208  \\
            0.322107129105511  28.91348107983469  \\
            0.3236345038438456  28.8766733790173  \\
            0.32600504908519135  28.839865678199914  \\
            0.3292007795418821  28.803057977382522  \\
            0.33319075642804324  28.766250276565135  \\
            0.33793120086169914  28.729442575747747  \\
            0.3433659460801774  28.69263487493036  \\
            0.34942722247913593  28.655827174112968  \\
            0.3560367538888579  28.61901947329558  \\
            0.36310712846036297  28.582211772478193  \\
            0.370543393978117  28.5454040716608  \\
            0.3782448162452853  28.508596370843414  \\
            0.3861067312088277  28.471788670026026  \\
            0.39402241735502835  28.434980969208635  \\
            0.4018849150412866  28.398173268391247  \\
            0.40958872399447316  28.36136556757386  \\
            0.4170313190480198  28.32455786675647  \\
            0.4241144368342351  28.28775016593908  \\
            0.43074510181045816  28.250942465121692  \\
            0.43683637762558086  28.214134764304305  \\
            0.4423078481783493  28.177327063486914  \\
            0.447085850429084  28.140519362669526  \\
            0.4511034967579147  28.103711661852138  \\
            0.4543005371954095  28.06690396103475  \\
            0.45662312020182927  28.03009626021736  \\
            0.4580235141873256  27.99328855939997  \\
            0.45845985039640363  27.956480858582584  \\
            0.4578959413102154  27.919673157765192  \\
            0.456301217963051  27.882865456947805  \\
            0.45365081551919617  27.846057756130417  \\
            0.4499258204018106  27.809250055313026  \\
            0.44511367567047433  27.772442354495638  \\
            0.43920872570674513  27.73563465367825  \\
            0.43221286797109376  27.698826952860863  \\
            0.42413626976703367  27.66201925204347  \\
            0.4149981023403003  27.625211551226084  \\
            0.4048272435450521  27.588403850408696  \\
            0.3936629035241314  27.551596149591305  \\
            0.3815551347011939  27.514788448773917  \\
            0.36856519679421806  27.47798074795653  \\
            0.3547657581825702  27.441173047139138  \\
            0.3402409253301262  27.40436534632175  \\
            0.3250861006905952  27.367557645504363  \\
            0.309407675454055  27.330749944686975  \\
            0.2933225658998032  27.293942243869584  \\
            0.2769576007851026  27.257134543052196  \\
            0.26044876247980914  27.220326842234808  \\
            0.2439402773624228  27.183519141417417  \\
            0.22758354269042097  27.14671144060003  \\
            0.21153586941106167  27.10990373978264  \\
            0.1959590149418462  27.07309603896525  \\
            0.1810174784333079  27.036288338147862  \\
            0.1668765346712593  26.999480637330475  \\
            0.15369999225824987  26.962672936513087  \\
            0.14164767701653508  26.925865235695696  \\
            0.13087266191201297  26.889057534878308  \\
            0.12151828873654813  26.85224983406092  \\
            0.1137150522497663  26.81544213324353  \\
            0.10757744203703712  26.77863443242614  \\
            0.10320085843079141  26.741826731608754  \\
            0.10065873406445364  26.705019030791366  \\
            0.09999999999999998  26.668211329973975  \\
            0.10124703355454917  26.631403629156587  \\
            0.10439421341193772  26.5945959283392  \\
            0.10940718667435312  26.557788227521808  \\
            0.11622292336330203  26.52098052670442  \\
            0.12475059842559799  26.484172825887033  \\
            0.13487330198964254  26.44736512506964  \\
            0.14645053820827464  26.410557424252254  \\
            0.1593214343241211  26.373749723434866  \\
            0.1733085472074255  26.336942022617478  \\
            0.18822212673247574  26.300134321800087  \\
            0.20386467558496718  26.2633266209827  \\
            0.22003563436268575  26.22651892016531  \\
            0.23653601938191937  26.18971121934792  \\
            0.2531728480132829  26.152903518530533  \\
            0.26976320166662043  26.116095817713145  \\
            0.28613779832564035  26.079288116895754  \\
            0.3021439731294273  26.042480416078366  \\
            0.31764799512443465  26.005672715260978  \\
            0.33253667920397495  25.96886501444359  \\
            0.3467182827843278  25.9320573136262  \\
            0.3601227055236891  25.89524961280881  \\
            0.3727010362197538  25.858441911991424  \\
            0.38442451304926595  25.821634211174032  \\
            0.3952829809354319  25.784826510356645  \\
            0.4052829426937069  25.748018809539257  \\
            0.4144453085810971  25.71121110872187  \\
            0.4228029520180851  25.674403407904478  \\
            0.4303981777900671  25.63759570708709  \\
            0.43728020333581863  25.600788006269703  \\
            0.44350274429143133  25.56398030545231  \\
            0.44912178289149723  25.527172604634924  \\
        }
        ;
    \addplot[color={rgb,1:red,0.0;green,0.0;blue,0.0}, name path={13d90eff-69f9-454f-8e1a-aa3b041ad9a2}, area legend, fill={rgb,1:red,0.0;green,0.6056;blue,0.9787}, fill opacity={1.0}, draw opacity={1.0}, line width={0}, solid, forget plot]
        table[row sep={\\}]
        {
            \\
            1.566201692981847  25.588328383529394  \\
            1.5728924621404097  25.624935079321656  \\
            1.5802002522941716  25.66154177511392  \\
            1.5881836039930373  25.698148470906183  \\
            1.5968998734901034  25.734755166698445  \\
            1.6064023993374827  25.77136186249071  \\
            1.6167372764612233  25.807968558282973  \\
            1.627939843346825  25.844575254075234  \\
            1.6400310191536882  25.8811819498675  \\
            1.6530136545247702  25.917788645659762  \\
            1.6668690803930704  25.954395341452024  \\
            1.6815540512126548  25.99100203724429  \\
            1.6969982810912845  26.02760873303655  \\
            1.7131027620837649  26.064215428828813  \\
            1.729739032839295  26.10082212462108  \\
            1.7467495330182459  26.13742882041334  \\
            1.7639491353250953  26.174035516205606  \\
            1.7811278943706736  26.210642211997868  \\
            1.7980549923711981  26.24724890779013  \\
            1.814483799071595  26.283855603582396  \\
            1.830157900903626  26.320462299374658  \\
            1.8448178961878923  26.35706899516692  \\
            1.8582087030999723  26.393675690959185  \\
            1.8700870887880428  26.430282386751447  \\
            1.8802291044999675  26.46688908254371  \\
            1.8884371050268267  26.503495778335974  \\
            1.8945460422751257  26.540102474128236  \\
            1.89842875217824  26.5767091699205  \\
            1.9  26.613315865712764  \\
            1.8992191087017072  26.649922561505026  \\
            1.8960910647293037  26.686529257297288  \\
            1.8906660708571763  26.723135953089553  \\
            1.8830375917157667  26.759742648881815  \\
            1.8733390094334412  26.796349344674077  \\
            1.8617390699253493  26.832956040466343  \\
            1.8484363509981452  26.869562736258604  \\
            1.833653018883544  26.906169432050866  \\
            1.817628158568473  26.942776127843132  \\
            1.800610965157086  26.979382823635394  \\
            1.7828540695297002  27.015989519427656  \\
            1.7646072438885099  27.05259621521992  \\
            1.746111694361176  27.089202911012183  \\
            1.727595102147304  27.125809606804445  \\
            1.7092675253939373  27.16241630259671  \\
            1.6913182245837264  27.199022998388973  \\
            1.6739134277994299  27.235629694181235  \\
            1.6571950112455103  27.2722363899735  \\
            1.6412800365605313  27.308843085765762  \\
            1.6262610606486858  27.345449781558024  \\
            1.612207116150697  27.38205647735029  \\
            1.5991652507770309  27.41866317314255  \\
            1.5871625105632576  27.455269868934813  \\
            1.5762082543860938  27.49187656472708  \\
            1.5662966933648141  27.52848326051934  \\
            1.55740955764646  27.565089956311603  \\
            1.5495188032545042  27.60169665210387  \\
            1.5425892821169112  27.63830334789613  \\
            1.5365813083052369  27.674910043688396  \\
            1.5314530624264706  27.711516739480658  \\
            1.5271627838047686  27.74812343527292  \\
            1.5236707066029918  27.784730131065185  \\
            1.5209407015897916  27.821336826857447  \\
            1.518941590223696  27.85794352264971  \\
            1.517648102555953  27.894550218441974  \\
            1.5170414556404956  27.931156914234236  \\
            1.5171095351632922  27.9677636100265  \\
            1.5178466702901439  28.004370305818764  \\
            1.5192530006100795  28.040977001611026  \\
            1.5213334447124123  28.077583697403288  \\
            1.524096292398458  28.114190393195553  \\
            1.5275514566107242  28.150797088987815  \\
            1.5317084364573537  28.187403784780077  \\
            1.5365740585830887  28.224010480572343  \\
            1.542150079737968  28.260617176364605  \\
            1.5484307476854766  28.297223872156867  \\
            1.5554004294099255  28.333830567949132  \\
            1.5630314237178593  28.370437263741394  \\
            1.5712820786207218  28.407043959533656  \\
            1.5800953313381563  28.44365065532592  \\
            1.589397779651188  28.480257351118183  \\
            1.5990993773213014  28.516864046910445  \\
            1.6090938235003969  28.55347074270271  \\
            1.6192596871324827  28.590077438494973  \\
            1.6294622734666078  28.626684134287235  \\
            1.6395562026336952  28.6632908300795  \\
            1.649388631870733  28.699897525871762  \\
            1.658803015768953  28.736504221664024  \\
            1.6676432653575561  28.77311091745629  \\
            1.6757581393142393  28.80971761324855  \\
            1.6830056812464034  28.846324309040813  \\
            1.689257507477813  28.88293100483308  \\
            1.694402751148577  28.91953770062534  \\
            1.6983514810007927  28.956144396417603  \\
            1.7010374364975989  28.99275109220987  \\
            1.7024199536502436  29.02935778800213  \\
            1.7024849961452255  29.065964483794392  \\
            1.701245251548708  29.102571179586658  \\
            1.6987392996227606  29.13917787537892  \\
            1.6950299060729488  29.175784571171185  \\
            1.6902015374028687  29.212391266963447  \\
            1.6843572283395667  29.24899796275571  \\
            1.6776149603944792  29.285604658547975  \\
            1.6701037270915033  29.322211354340237  \\
            1.661959467549879  29.3588180501325  \\
            1.6533210455744454  29.395424745924764  \\
            1.6443264370559163  29.432031441717026  \\
            1.6351092658495137  29.468638137509288  \\
            1.6257957994126095  29.505244833301553  \\
            1.6165024826840895  29.541851529093815  \\
            1.607334054430811  29.578458224886077  \\
            1.5983822569273505  29.615064920678343  \\
            1.589725119459028  29.651671616470605  \\
            1.410274880540972  29.651671616470605  \\
            1.4016177430726495  29.615064920678343  \\
            1.392665945569189  29.578458224886077  \\
            1.3834975173159105  29.541851529093815  \\
            1.3742042005873905  29.505244833301553  \\
            1.3648907341504863  29.468638137509288  \\
            1.3556735629440837  29.432031441717026  \\
            1.3466789544255546  29.395424745924764  \\
            1.338040532450121  29.3588180501325  \\
            1.3298962729084967  29.322211354340237  \\
            1.3223850396055208  29.285604658547975  \\
            1.3156427716604333  29.24899796275571  \\
            1.3097984625971313  29.212391266963447  \\
            1.3049700939270512  29.175784571171185  \\
            1.3012607003772394  29.13917787537892  \\
            1.298754748451292  29.102571179586658  \\
            1.2975150038547745  29.065964483794392  \\
            1.2975800463497564  29.02935778800213  \\
            1.2989625635024011  28.99275109220987  \\
            1.3016485189992073  28.956144396417603  \\
            1.305597248851423  28.91953770062534  \\
            1.310742492522187  28.88293100483308  \\
            1.3169943187535966  28.846324309040813  \\
            1.3242418606857607  28.80971761324855  \\
            1.3323567346424439  28.77311091745629  \\
            1.341196984231047  28.736504221664024  \\
            1.350611368129267  28.699897525871762  \\
            1.3604437973663048  28.6632908300795  \\
            1.3705377265333922  28.626684134287235  \\
            1.3807403128675173  28.590077438494973  \\
            1.3909061764996031  28.55347074270271  \\
            1.4009006226786986  28.516864046910445  \\
            1.410602220348812  28.480257351118183  \\
            1.4199046686618437  28.44365065532592  \\
            1.4287179213792782  28.407043959533656  \\
            1.4369685762821407  28.370437263741394  \\
            1.4445995705900745  28.333830567949132  \\
            1.4515692523145234  28.297223872156867  \\
            1.457849920262032  28.260617176364605  \\
            1.4634259414169113  28.224010480572343  \\
            1.4682915635426463  28.187403784780077  \\
            1.4724485433892758  28.150797088987815  \\
            1.475903707601542  28.114190393195553  \\
            1.4786665552875877  28.077583697403288  \\
            1.4807469993899205  28.040977001611026  \\
            1.4821533297098561  28.004370305818764  \\
            1.4828904648367078  27.9677636100265  \\
            1.4829585443595044  27.931156914234236  \\
            1.482351897444047  27.894550218441974  \\
            1.481058409776304  27.85794352264971  \\
            1.4790592984102084  27.821336826857447  \\
            1.4763292933970082  27.784730131065185  \\
            1.4728372161952314  27.74812343527292  \\
            1.4685469375735294  27.711516739480658  \\
            1.4634186916947631  27.674910043688396  \\
            1.4574107178830888  27.63830334789613  \\
            1.4504811967454958  27.60169665210387  \\
            1.44259044235354  27.565089956311603  \\
            1.4337033066351859  27.52848326051934  \\
            1.4237917456139062  27.49187656472708  \\
            1.4128374894367424  27.455269868934813  \\
            1.4008347492229691  27.41866317314255  \\
            1.387792883849303  27.38205647735029  \\
            1.3737389393513142  27.345449781558024  \\
            1.3587199634394687  27.308843085765762  \\
            1.3428049887544897  27.2722363899735  \\
            1.3260865722005701  27.235629694181235  \\
            1.3086817754162736  27.199022998388973  \\
            1.2907324746060627  27.16241630259671  \\
            1.272404897852696  27.125809606804445  \\
            1.253888305638824  27.089202911012183  \\
            1.2353927561114901  27.05259621521992  \\
            1.2171459304702998  27.015989519427656  \\
            1.199389034842914  26.979382823635394  \\
            1.182371841431527  26.942776127843132  \\
            1.166346981116456  26.906169432050866  \\
            1.1515636490018548  26.869562736258604  \\
            1.1382609300746507  26.832956040466343  \\
            1.1266609905665588  26.796349344674077  \\
            1.1169624082842333  26.759742648881815  \\
            1.1093339291428237  26.723135953089553  \\
            1.1039089352706963  26.686529257297288  \\
            1.1007808912982928  26.649922561505026  \\
            1.1  26.613315865712764  \\
            1.10157124782176  26.5767091699205  \\
            1.1054539577248743  26.540102474128236  \\
            1.1115628949731733  26.503495778335974  \\
            1.1197708955000325  26.46688908254371  \\
            1.1299129112119572  26.430282386751447  \\
            1.1417912969000277  26.393675690959185  \\
            1.1551821038121077  26.35706899516692  \\
            1.169842099096374  26.320462299374658  \\
            1.185516200928405  26.283855603582396  \\
            1.2019450076288019  26.24724890779013  \\
            1.2188721056293264  26.210642211997868  \\
            1.2360508646749047  26.174035516205606  \\
            1.2532504669817541  26.13742882041334  \\
            1.270260967160705  26.10082212462108  \\
            1.2868972379162351  26.064215428828813  \\
            1.3030017189087155  26.02760873303655  \\
            1.3184459487873452  25.99100203724429  \\
            1.3331309196069296  25.954395341452024  \\
            1.3469863454752298  25.917788645659762  \\
            1.3599689808463118  25.8811819498675  \\
            1.372060156653175  25.844575254075234  \\
            1.3832627235387767  25.807968558282973  \\
            1.3935976006625173  25.77136186249071  \\
            1.4031001265098966  25.734755166698445  \\
            1.4118163960069627  25.698148470906183  \\
            1.4197997477058284  25.66154177511392  \\
            1.4271075378595903  25.624935079321656  \\
            1.433798307018153  25.588328383529394  \\
        }
        ;
    \addplot[color={rgb,1:red,0.0;green,0.0;blue,0.0}, name path={13d90eff-69f9-454f-8e1a-aa3b041ad9a2}, area legend, fill={rgb,1:red,0.0;green,0.6056;blue,0.9787}, fill opacity={1.0}, draw opacity={1.0}, line width={0}, solid, forget plot]
        table[row sep={\\}]
        {
            \\
            2.676237714187736  26.091763872540962  \\
            2.6899871236787076  26.124501221599555  \\
            2.704048421209403  26.15723857065815  \\
            2.718343336155128  26.189975919716748  \\
            2.732785659216785  26.22271326877534  \\
            2.7472818411165036  26.255450617833937  \\
            2.761731778230355  26.28818796689253  \\
            2.7760297867319808  26.320925315951126  \\
            2.7900657602818715  26.353662665009722  \\
            2.803726499104493  26.386400014068315  \\
            2.816897190846222  26.41913736312691  \\
            2.8294630163521726  26.451874712185504  \\
            2.841310846908537  26.4846120612441  \\
            2.852330994016096  26.517349410302693  \\
            2.862418968776484  26.55008675936129  \\
            2.8714772057769884  26.582824108419885  \\
            2.8794167061230436  26.615561457478478  \\
            2.88615855602626  26.648298806537074  \\
            2.89163528100927  26.681036155595667  \\
            2.8957920011105887  26.713773504654263  \\
            2.8985873591334252  26.74651085371286  \\
            2.899994201579211  26.779248202771452  \\
            2.9  26.81198555183005  \\
            2.898607008654097  26.84472290088864  \\
            2.8958321621505667  26.877460249947237  \\
            2.8917067238770287  26.910197599005834  \\
            2.8862757021591756  26.942934948064426  \\
            2.8795970561287167  26.975672297123023  \\
            2.8717407170990117  27.008409646181615  \\
            2.8627874538668965  27.04114699524021  \\
            2.852827611844689  27.073884344298804  \\
            2.841959756395926  27.1066216933574  \\
            2.8302892503480654  27.139359042415997  \\
            2.8179267945412954  27.17209639147459  \\
            2.8049869585959835  27.204833740533186  \\
            2.791586726978942  27.23757108959178  \\
            2.7778440830380515  27.270308438650375  \\
            2.7638766510538697  27.30304578770897  \\
            2.7498004136076037  27.335783136767564  \\
            2.7357285187581475  27.36852048582616  \\
            2.721770188721782  27.401257834884753  \\
            2.7080297390195835  27.43399518394335  \\
            2.69460571446183  27.466732533001945  \\
            2.6815901459357248  27.499469882060538  \\
            2.669067929806201  27.532207231119134  \\
            2.657116329870684  27.564944580177727  \\
            2.645804600249767  27.597681929236323  \\
            2.6351937263445664  27.630419278294916  \\
            2.625336280017666  27.663156627353512  \\
            2.616276384399688  27.69589397641211  \\
            2.6080497831051495  27.7286313254707  \\
            2.6006840080606946  27.761368674529297  \\
            2.594198639502751  27.79410602358789  \\
            2.5886056508955346  27.826843372646486  \\
            2.5839098304826673  27.859580721705083  \\
            2.5801092698808237  27.892318070763675  \\
            2.5771959085620697  27.92505541982227  \\
            2.5751561213142398  27.957792768880864  \\
            2.5739713339281383  27.99053011793946  \\
            2.573618650593336  28.023267466998053  \\
            2.5740714749803004  28.05600481605665  \\
            2.5753001059507374  28.088742165115246  \\
            2.577272288471393  28.12147951417384  \\
            2.579953700785102  28.154216863232435  \\
            2.583308360347308  28.186954212291027  \\
            2.587298933535325  28.219691561349624  \\
            2.5918869376764446  28.25242891040822  \\
            2.5970328284354256  28.285166259466813  \\
            2.602695970890528  28.31790360852541  \\
            2.6088344984794976  28.350640957584  \\
            2.615405070127871  28.383378306642598  \\
            2.622362541961371  28.416115655701194  \\
            2.629659575718075  28.448853004759787  \\
            2.637246210989232  28.481590353818383  \\
            2.6450694324340502  28.514327702876976  \\
            2.6530727658840974  28.547065051935572  \\
            2.661195938587316  28.579802400994165  \\
            2.669374638617277  28.61253975005276  \\
            2.677540406637378  28.645277099111357  \\
            2.6856206897777275  28.67801444816995  \\
            2.693539082433636  28.710751797228546  \\
            2.7012157724653894  28.74348914628714  \\
            2.7085682037565117  28.776226495345735  \\
            2.7155119576037556  28.80896384440433  \\
            2.72196184623838  28.841701193462924  \\
            2.7278332022231684  28.87443854252152  \\
            2.7330433378748227  28.907175891580113  \\
            2.737513139598704  28.93991324063871  \\
            2.741168753488136  28.972650589697306  \\
            2.743943311144469  29.0053879387559  \\
            2.7457786388281544  29.038125287814495  \\
            2.7466268891480583  29.070862636873088  \\
            2.7464520328860873  29.103599985931684  \\
            2.745231149516379  29.136337334990277  \\
            2.742955458692761  29.169074684048873  \\
            2.739631041498009  29.20181203310747  \\
            2.735279209477851  29.234549382166062  \\
            2.729936491163131  29.267286731224658  \\
            2.723654219491592  29.30002408028325  \\
            2.7164977186986485  29.332761429341847  \\
            2.7085451051474743  29.365498778400443  \\
            2.6998857324144754  29.398236127459036  \\
            2.3001142675855246  29.398236127459036  \\
            2.2914548948525257  29.365498778400443  \\
            2.2835022813013515  29.332761429341847  \\
            2.276345780508408  29.30002408028325  \\
            2.270063508836869  29.267286731224658  \\
            2.264720790522149  29.234549382166062  \\
            2.260368958501991  29.20181203310747  \\
            2.257044541307239  29.169074684048873  \\
            2.254768850483621  29.136337334990277  \\
            2.2535479671139127  29.103599985931684  \\
            2.2533731108519417  29.070862636873088  \\
            2.2542213611718456  29.038125287814495  \\
            2.256056688855531  29.0053879387559  \\
            2.258831246511864  28.972650589697306  \\
            2.262486860401296  28.93991324063871  \\
            2.2669566621251773  28.907175891580113  \\
            2.2721667977768316  28.87443854252152  \\
            2.27803815376162  28.841701193462924  \\
            2.2844880423962444  28.80896384440433  \\
            2.2914317962434883  28.776226495345735  \\
            2.2987842275346106  28.74348914628714  \\
            2.306460917566364  28.710751797228546  \\
            2.3143793102222725  28.67801444816995  \\
            2.322459593362622  28.645277099111357  \\
            2.330625361382723  28.61253975005276  \\
            2.338804061412684  28.579802400994165  \\
            2.3469272341159026  28.547065051935572  \\
            2.3549305675659498  28.514327702876976  \\
            2.362753789010768  28.481590353818383  \\
            2.370340424281925  28.448853004759787  \\
            2.377637458038629  28.416115655701194  \\
            2.384594929872129  28.383378306642598  \\
            2.3911655015205024  28.350640957584  \\
            2.397304029109472  28.31790360852541  \\
            2.4029671715645744  28.285166259466813  \\
            2.4081130623235554  28.25242891040822  \\
            2.412701066464675  28.219691561349624  \\
            2.416691639652692  28.186954212291027  \\
            2.420046299214898  28.154216863232435  \\
            2.422727711528607  28.12147951417384  \\
            2.4246998940492626  28.088742165115246  \\
            2.4259285250196996  28.05600481605665  \\
            2.426381349406664  28.023267466998053  \\
            2.4260286660718617  27.99053011793946  \\
            2.4248438786857602  27.957792768880864  \\
            2.4228040914379303  27.92505541982227  \\
            2.4198907301191763  27.892318070763675  \\
            2.4160901695173327  27.859580721705083  \\
            2.4113943491044654  27.826843372646486  \\
            2.405801360497249  27.79410602358789  \\
            2.3993159919393054  27.761368674529297  \\
            2.3919502168948505  27.7286313254707  \\
            2.383723615600312  27.69589397641211  \\
            2.374663719982334  27.663156627353512  \\
            2.3648062736554336  27.630419278294916  \\
            2.354195399750233  27.597681929236323  \\
            2.342883670129316  27.564944580177727  \\
            2.330932070193799  27.532207231119134  \\
            2.3184098540642752  27.499469882060538  \\
            2.30539428553817  27.466732533001945  \\
            2.2919702609804165  27.43399518394335  \\
            2.278229811278218  27.401257834884753  \\
            2.2642714812418525  27.36852048582616  \\
            2.2501995863923963  27.335783136767564  \\
            2.2361233489461303  27.30304578770897  \\
            2.2221559169619485  27.270308438650375  \\
            2.208413273021058  27.23757108959178  \\
            2.1950130414040165  27.204833740533186  \\
            2.1820732054587046  27.17209639147459  \\
            2.1697107496519346  27.139359042415997  \\
            2.158040243604074  27.1066216933574  \\
            2.147172388155311  27.073884344298804  \\
            2.1372125461331035  27.04114699524021  \\
            2.1282592829009883  27.008409646181615  \\
            2.1204029438712833  26.975672297123023  \\
            2.1137242978408244  26.942934948064426  \\
            2.1082932761229713  26.910197599005834  \\
            2.1041678378494333  26.877460249947237  \\
            2.101392991345903  26.84472290088864  \\
            2.1  26.81198555183005  \\
            2.100005798420789  26.779248202771452  \\
            2.1014126408665748  26.74651085371286  \\
            2.1042079988894113  26.713773504654263  \\
            2.10836471899073  26.681036155595667  \\
            2.11384144397374  26.648298806537074  \\
            2.1205832938769564  26.615561457478478  \\
            2.1285227942230116  26.582824108419885  \\
            2.137581031223516  26.55008675936129  \\
            2.147669005983904  26.517349410302693  \\
            2.158689153091463  26.4846120612441  \\
            2.1705369836478274  26.451874712185504  \\
            2.183102809153778  26.41913736312691  \\
            2.196273500895507  26.386400014068315  \\
            2.2099342397181285  26.353662665009722  \\
            2.2239702132680192  26.320925315951126  \\
            2.238268221769645  26.28818796689253  \\
            2.2527181588834964  26.255450617833937  \\
            2.267214340783215  26.22271326877534  \\
            2.281656663844872  26.189975919716748  \\
            2.295951578790597  26.15723857065815  \\
            2.3100128763212924  26.124501221599555  \\
            2.323762285812264  26.091763872540962  \\
        }
        ;
    \addplot[color={rgb,1:red,0.0;green,0.0;blue,0.0}, name path={0257d982-e64b-49e5-8dcf-c6162b00f44f}, area legend, fill={rgb,1:red,0.8889;green,0.4356;blue,0.2781}, fill opacity={0.75}, draw opacity={1.0}, line width={1}, solid, forget plot]
        table[row sep={\\}]
        {
            \\
            0.5  25.51  \\
            0.3  25.51  \\
            0.7  25.51  \\
            0.5  25.51  \\
            0.5  26.585  \\
        }
        ;
    \addplot[color={rgb,1:red,0.0;green,0.0;blue,0.0}, name path={0257d982-e64b-49e5-8dcf-c6162b00f44f}, area legend, fill={rgb,1:red,0.8889;green,0.4356;blue,0.2781}, fill opacity={0.75}, draw opacity={1.0}, line width={1}, solid, forget plot]
        table[row sep={\\}]
        {
            \\
            0.9  26.585  \\
            0.9  26.81  \\
            0.09999999999999998  26.81  \\
            0.09999999999999998  26.585  \\
            0.9  26.585  \\
            0.9  26.81  \\
        }
        ;
    \addplot[color={rgb,1:red,0.0;green,0.0;blue,0.0}, name path={0257d982-e64b-49e5-8dcf-c6162b00f44f}, area legend, fill={rgb,1:red,0.8889;green,0.4356;blue,0.2781}, fill opacity={0.75}, draw opacity={1.0}, line width={1}, solid, forget plot]
        table[row sep={\\}]
        {
            \\
            0.9  28.655  \\
            0.09999999999999998  28.655  \\
            0.09999999999999998  26.81  \\
            0.9  26.81  \\
            0.9  28.655  \\
            0.5  28.655  \\
        }
        ;
    \addplot[color={rgb,1:red,0.0;green,0.0;blue,0.0}, name path={0257d982-e64b-49e5-8dcf-c6162b00f44f}, area legend, fill={rgb,1:red,0.8889;green,0.4356;blue,0.2781}, fill opacity={0.75}, draw opacity={1.0}, line width={1}, solid, forget plot]
        table[row sep={\\}]
        {
            \\
            0.5  29.63  \\
            0.3  29.63  \\
            0.7  29.63  \\
            0.5  29.63  \\
            0.5  28.655  \\
        }
        ;
    \addplot[color={rgb,1:red,0.0;green,0.0;blue,0.0}, name path={0257d982-e64b-49e5-8dcf-c6162b00f44f}, area legend, fill={rgb,1:red,0.8889;green,0.4356;blue,0.2781}, fill opacity={0.75}, draw opacity={1.0}, line width={1}, solid, forget plot]
        table[row sep={\\}]
        {
            \\
            1.5  25.58  \\
            1.3  25.58  \\
            1.7  25.58  \\
            1.5  25.58  \\
            1.5  26.55  \\
        }
        ;
    \addplot[color={rgb,1:red,0.0;green,0.0;blue,0.0}, name path={0257d982-e64b-49e5-8dcf-c6162b00f44f}, area legend, fill={rgb,1:red,0.8889;green,0.4356;blue,0.2781}, fill opacity={0.75}, draw opacity={1.0}, line width={1}, solid, forget plot]
        table[row sep={\\}]
        {
            \\
            1.9  26.55  \\
            1.9  26.74  \\
            1.1  26.74  \\
            1.1  26.55  \\
            1.9  26.55  \\
            1.9  26.74  \\
        }
        ;
    \addplot[color={rgb,1:red,0.0;green,0.0;blue,0.0}, name path={0257d982-e64b-49e5-8dcf-c6162b00f44f}, area legend, fill={rgb,1:red,0.8889;green,0.4356;blue,0.2781}, fill opacity={0.75}, draw opacity={1.0}, line width={1}, solid, forget plot]
        table[row sep={\\}]
        {
            \\
            1.9  28.86  \\
            1.1  28.86  \\
            1.1  26.74  \\
            1.9  26.74  \\
            1.9  28.86  \\
            1.5  28.86  \\
        }
        ;
    \addplot[color={rgb,1:red,0.0;green,0.0;blue,0.0}, name path={0257d982-e64b-49e5-8dcf-c6162b00f44f}, area legend, fill={rgb,1:red,0.8889;green,0.4356;blue,0.2781}, fill opacity={0.75}, draw opacity={1.0}, line width={1}, solid, forget plot]
        table[row sep={\\}]
        {
            \\
            1.5  29.66  \\
            1.3  29.66  \\
            1.7  29.66  \\
            1.5  29.66  \\
            1.5  28.86  \\
        }
        ;
    \addplot[color={rgb,1:red,0.0;green,0.0;blue,0.0}, name path={0257d982-e64b-49e5-8dcf-c6162b00f44f}, area legend, fill={rgb,1:red,0.8889;green,0.4356;blue,0.2781}, fill opacity={0.75}, draw opacity={1.0}, line width={1}, solid, forget plot]
        table[row sep={\\}]
        {
            \\
            2.5  26.09  \\
            2.3  26.09  \\
            2.7  26.09  \\
            2.5  26.09  \\
            2.5  26.7  \\
        }
        ;
    \addplot[color={rgb,1:red,0.0;green,0.0;blue,0.0}, name path={0257d982-e64b-49e5-8dcf-c6162b00f44f}, area legend, fill={rgb,1:red,0.8889;green,0.4356;blue,0.2781}, fill opacity={0.75}, draw opacity={1.0}, line width={1}, solid, forget plot]
        table[row sep={\\}]
        {
            \\
            2.9  26.7  \\
            2.9  27.12  \\
            2.1  27.12  \\
            2.1  26.7  \\
            2.9  26.7  \\
            2.9  27.12  \\
        }
        ;
    \addplot[color={rgb,1:red,0.0;green,0.0;blue,0.0}, name path={0257d982-e64b-49e5-8dcf-c6162b00f44f}, area legend, fill={rgb,1:red,0.8889;green,0.4356;blue,0.2781}, fill opacity={0.75}, draw opacity={1.0}, line width={1}, solid, forget plot]
        table[row sep={\\}]
        {
            \\
            2.9  28.84  \\
            2.1  28.84  \\
            2.1  27.12  \\
            2.9  27.12  \\
            2.9  28.84  \\
            2.5  28.84  \\
        }
        ;
    \addplot[color={rgb,1:red,0.0;green,0.0;blue,0.0}, name path={0257d982-e64b-49e5-8dcf-c6162b00f44f}, area legend, fill={rgb,1:red,0.8889;green,0.4356;blue,0.2781}, fill opacity={0.75}, draw opacity={1.0}, line width={1}, solid, forget plot]
        table[row sep={\\}]
        {
            \\
            2.5  29.4  \\
            2.3  29.4  \\
            2.7  29.4  \\
            2.5  29.4  \\
            2.5  28.84  \\
        }
        ;
    \addplot[color={rgb,1:red,0.8889;green,0.4356;blue,0.2781}, name path={058af65f-d320-4135-b2c7-5142f600f776}, draw opacity={1.0}, line width={0}, solid, forget plot]
        table[row sep={\\}]
        {
            \\
            0.5  25.51  \\
            0.3  25.51  \\
            0.7  25.51  \\
            0.5  25.51  \\
            0.5  26.585  \\
        }
        ;
    \addplot[color={rgb,1:red,0.8889;green,0.4356;blue,0.2781}, name path={058af65f-d320-4135-b2c7-5142f600f776}, draw opacity={1.0}, line width={0}, solid, forget plot]
        table[row sep={\\}]
        {
            \\
            0.9  26.585  \\
            0.9  26.81  \\
            0.09999999999999998  26.81  \\
            0.09999999999999998  26.585  \\
            0.9  26.585  \\
            0.9  26.81  \\
        }
        ;
    \addplot[color={rgb,1:red,0.8889;green,0.4356;blue,0.2781}, name path={058af65f-d320-4135-b2c7-5142f600f776}, draw opacity={1.0}, line width={0}, solid, forget plot]
        table[row sep={\\}]
        {
            \\
            0.9  28.655  \\
            0.09999999999999998  28.655  \\
            0.09999999999999998  26.81  \\
            0.9  26.81  \\
            0.9  28.655  \\
            0.5  28.655  \\
        }
        ;
    \addplot[color={rgb,1:red,0.8889;green,0.4356;blue,0.2781}, name path={058af65f-d320-4135-b2c7-5142f600f776}, draw opacity={1.0}, line width={0}, solid, forget plot]
        table[row sep={\\}]
        {
            \\
            0.5  29.63  \\
            0.3  29.63  \\
            0.7  29.63  \\
            0.5  29.63  \\
            0.5  28.655  \\
        }
        ;
    \addplot[color={rgb,1:red,0.8889;green,0.4356;blue,0.2781}, name path={058af65f-d320-4135-b2c7-5142f600f776}, draw opacity={1.0}, line width={0}, solid, forget plot]
        table[row sep={\\}]
        {
            \\
            1.5  25.58  \\
            1.3  25.58  \\
            1.7  25.58  \\
            1.5  25.58  \\
            1.5  26.55  \\
        }
        ;
    \addplot[color={rgb,1:red,0.8889;green,0.4356;blue,0.2781}, name path={058af65f-d320-4135-b2c7-5142f600f776}, draw opacity={1.0}, line width={0}, solid, forget plot]
        table[row sep={\\}]
        {
            \\
            1.9  26.55  \\
            1.9  26.74  \\
            1.1  26.74  \\
            1.1  26.55  \\
            1.9  26.55  \\
            1.9  26.74  \\
        }
        ;
    \addplot[color={rgb,1:red,0.8889;green,0.4356;blue,0.2781}, name path={058af65f-d320-4135-b2c7-5142f600f776}, draw opacity={1.0}, line width={0}, solid, forget plot]
        table[row sep={\\}]
        {
            \\
            1.9  28.86  \\
            1.1  28.86  \\
            1.1  26.74  \\
            1.9  26.74  \\
            1.9  28.86  \\
            1.5  28.86  \\
        }
        ;
    \addplot[color={rgb,1:red,0.8889;green,0.4356;blue,0.2781}, name path={058af65f-d320-4135-b2c7-5142f600f776}, draw opacity={1.0}, line width={0}, solid, forget plot]
        table[row sep={\\}]
        {
            \\
            1.5  29.66  \\
            1.3  29.66  \\
            1.7  29.66  \\
            1.5  29.66  \\
            1.5  28.86  \\
        }
        ;
    \addplot[color={rgb,1:red,0.8889;green,0.4356;blue,0.2781}, name path={058af65f-d320-4135-b2c7-5142f600f776}, draw opacity={1.0}, line width={0}, solid, forget plot]
        table[row sep={\\}]
        {
            \\
            2.5  26.09  \\
            2.3  26.09  \\
            2.7  26.09  \\
            2.5  26.09  \\
            2.5  26.7  \\
        }
        ;
    \addplot[color={rgb,1:red,0.8889;green,0.4356;blue,0.2781}, name path={058af65f-d320-4135-b2c7-5142f600f776}, draw opacity={1.0}, line width={0}, solid, forget plot]
        table[row sep={\\}]
        {
            \\
            2.9  26.7  \\
            2.9  27.12  \\
            2.1  27.12  \\
            2.1  26.7  \\
            2.9  26.7  \\
            2.9  27.12  \\
        }
        ;
    \addplot[color={rgb,1:red,0.8889;green,0.4356;blue,0.2781}, name path={058af65f-d320-4135-b2c7-5142f600f776}, draw opacity={1.0}, line width={0}, solid, forget plot]
        table[row sep={\\}]
        {
            \\
            2.9  28.84  \\
            2.1  28.84  \\
            2.1  27.12  \\
            2.9  27.12  \\
            2.9  28.84  \\
            2.5  28.84  \\
        }
        ;
    \addplot[color={rgb,1:red,0.8889;green,0.4356;blue,0.2781}, name path={058af65f-d320-4135-b2c7-5142f600f776}, draw opacity={1.0}, line width={0}, solid, forget plot]
        table[row sep={\\}]
        {
            \\
            2.5  29.4  \\
            2.3  29.4  \\
            2.7  29.4  \\
            2.5  29.4  \\
            2.5  28.84  \\
        }
        ;
    \addplot[color={rgb,1:red,0.2422;green,0.6433;blue,0.3044}, name path={53387060-b828-4396-b96e-790d4ce54cce}, only marks, draw opacity={1.0}, line width={0}, solid, mark={*}, mark size={0.75 pt}, mark repeat={1}, mark options={color={rgb,1:red,0.0;green,0.0;blue,0.0}, draw opacity={1.0}, fill={rgb,1:red,0.0;green,0.0;blue,0.0}, fill opacity={1.0}, line width={0.75}, rotate={0}, solid}, forget plot]
        table[row sep={\\}]
        {
            \\
            0.5583973236572127  29.63  \\
            0.6515624889065713  27.16  \\
            0.7367939665117452  26.6  \\
            0.34341885503005853  26.15  \\
            0.5940751129588518  26.56  \\
            0.5239268457527615  29.0  \\
            0.49604339825295174  27.2  \\
            0.7412586482066539  26.61  \\
            0.2967724769850359  25.98  \\
            0.7958472654717498  26.97  \\
            0.575449928832083  26.37  \\
            0.3643980256344571  28.67  \\
            0.5034017293830212  29.11  \\
            0.39821312928794433  26.93  \\
            0.19401567890691246  26.41  \\
            0.332653911086056  26.58  \\
            0.33639138119032075  27.27  \\
            0.3916031649105728  28.71  \\
            0.29589360171814627  26.59  \\
            0.47809008056356156  25.51  \\
            0.4637873071018023  29.43  \\
            0.2771100814083993  26.78  \\
            0.30128817762817284  26.28  \\
            0.13776420892578045  26.47  \\
            0.30915400372040697  26.71  \\
            0.18128713177850325  26.73  \\
            0.3334590830976245  26.27  \\
            0.7667929085535183  27.22  \\
            0.6013166218285537  28.82  \\
            0.18143193209044095  26.77  \\
            0.829072025155213  26.77  \\
            0.5824227054365552  28.64  \\
            0.5236076756947323  28.52  \\
            0.37862643427191717  29.41  \\
            0.20055403542171052  26.6  \\
            0.72145240352985  27.04  \\
            0.5204992647367904  29.04  \\
            0.45112103700439093  28.94  \\
            0.3586658177231189  26.6  \\
            0.7440347027445856  26.81  \\
            0.45368440981486496  27.1  \\
            0.3229226159597202  26.36  \\
            0.5709790339413692  29.14  \\
            1.5567147120218199  27.06  \\
            1.6952915795546823  26.59  \\
            1.5830251579427457  28.86  \\
            1.3113522970090166  26.65  \\
            1.4835907366234042  28.92  \\
            1.8709871421007307  26.65  \\
            1.5553854902225226  28.75  \\
            1.7361070882072869  26.34  \\
            1.3469285900369026  29.04  \\
            1.4588245756048053  29.01  \\
            1.335625318083009  29.37  \\
            1.7358603288948509  26.74  \\
            1.8319442203076712  26.45  \\
            1.3699691076066538  29.19  \\
            1.4981267770993434  29.66  \\
            1.212892812326389  26.78  \\
            1.3209528709272473  27.0  \\
            1.384276907650466  26.77  \\
            1.590356761220931  28.95  \\
            1.1878714957887926  26.7  \\
            1.4826090706587693  29.09  \\
            1.3255981120523397  29.21  \\
            1.5365502612866  29.14  \\
            1.4998318908076584  26.28  \\
            1.570672885979302  26.42  \\
            1.7185591551170787  26.48  \\
            1.3696468832697106  26.58  \\
            1.201701958944539  26.65  \\
            1.32022000519769  27.04  \\
            1.493859823688405  27.15  \\
            1.6523177195059677  26.64  \\
            1.112728515759303  26.55  \\
            1.6426693353414616  26.53  \\
            1.8564424331213638  26.7  \\
            1.1788534438396288  26.76  \\
            1.1998998870247632  26.3  \\
            1.3676180961627258  26.6  \\
            1.5473025540049847  28.86  \\
            1.507687126381118  25.58  \\
            1.4276856216656628  25.78  \\
            1.368514296933114  26.11  \\
            2.642727806241531  29.4  \\
            2.5627573474188035  27.45  \\
            2.4120714993991714  26.38  \\
            2.1813774589503336  26.5  \\
            2.7242822639524937  26.55  \\
            2.319456969110095  26.64  \\
            2.7692381595452744  26.87  \\
            2.865606890450092  26.61  \\
            2.622173064595846  29.33  \\
            2.183734484689513  26.67  \\
            2.641710581251524  26.09  \\
            2.4908211503227826  29.32  \\
            2.391153355639962  27.12  \\
            2.3227684561442308  26.83  \\
            2.193319768335592  27.04  \\
            2.394747253828524  29.17  \\
            2.768608019225652  27.14  \\
            2.729710213793303  27.04  \\
            2.365053286058357  29.19  \\
            2.5853894611148163  26.26  \\
            2.3305889889262996  26.16  \\
            2.4412799867658546  26.7  \\
            2.6285245436854052  28.78  \\
            2.4465100439730825  29.33  \\
            2.557322378892365  27.27  \\
            2.5702064824418134  28.9  \\
            2.3254926434001155  29.14  \\
            2.585883940245722  29.23  \\
            2.6110075802186894  28.32  \\
            2.544311337409664  27.12  \\
            2.5138139150976246  27.05  \\
            2.5424001591119265  28.44  \\
            2.774028538361781  26.97  \\
            2.5806720640962566  27.52  \\
            2.5932410577497067  26.79  \\
            2.2310922556728094  26.54  \\
            2.5840325175758663  26.7  \\
            2.4501110452686827  28.79  \\
            2.333280768329969  28.97  \\
            2.3042394351156936  28.84  \\
            2.57174878236755  26.71  \\
        }
        ;
\end{axis}
\end{tikzpicture}
