\begin{tikzpicture}[/tikz/background rectangle/.style={fill={rgb,1:red,1.0;green,1.0;blue,1.0}, draw opacity={1.0}}, show background rectangle]
\begin{axis}[point meta max={nan}, point meta min={nan}, legend cell align={left}, legend columns={1}, title={}, title style={at={{(0.5,1)}}, anchor={south}, font={{\fontsize{14 pt}{18.2 pt}\selectfont}}, color={rgb,1:red,0.0;green,0.0;blue,0.0}, draw opacity={1.0}, rotate={0.0}}, legend style={color={rgb,1:red,0.0;green,0.0;blue,0.0}, draw opacity={1.0}, line width={1}, solid, fill={rgb,1:red,1.0;green,1.0;blue,1.0}, fill opacity={1.0}, text opacity={1.0}, font={{\fontsize{8 pt}{10.4 pt}\selectfont}}, text={rgb,1:red,0.0;green,0.0;blue,0.0}, cells={anchor={center}}, at={(1.02, 1)}, anchor={north west}}, axis background/.style={fill={rgb,1:red,1.0;green,1.0;blue,1.0}, opacity={1.0}}, anchor={north west}, xshift={1.0mm}, yshift={-1.0mm}, width={145.4mm}, height={99.6mm}, scaled x ticks={false}, xlabel={}, x tick style={color={rgb,1:red,0.0;green,0.0;blue,0.0}, opacity={1.0}}, x tick label style={color={rgb,1:red,0.0;green,0.0;blue,0.0}, opacity={1.0}, rotate={0}}, xlabel style={at={(ticklabel cs:0.5)}, anchor=near ticklabel, at={{(ticklabel cs:0.5)}}, anchor={near ticklabel}, font={{\fontsize{11 pt}{14.3 pt}\selectfont}}, color={rgb,1:red,0.0;green,0.0;blue,0.0}, draw opacity={1.0}, rotate={0.0}}, xmajorgrids={true}, xmin={0.015999999999999986}, xmax={2.984}, xtick={{0.5,1.5,2.5}}, xticklabels={{$BBQMeatlovers$,$Hawaiian$,$SuperSupremo$}}, xtick align={inside}, xticklabel style={font={{\fontsize{8 pt}{10.4 pt}\selectfont}}, color={rgb,1:red,0.0;green,0.0;blue,0.0}, draw opacity={1.0}, rotate={0.0}}, x grid style={color={rgb,1:red,0.0;green,0.0;blue,0.0}, draw opacity={0.1}, line width={0.5}, solid}, axis x line*={left}, x axis line style={color={rgb,1:red,0.0;green,0.0;blue,0.0}, draw opacity={1.0}, line width={1}, solid}, scaled y ticks={false}, ylabel={$D \text{ (cm)}$}, y tick style={color={rgb,1:red,0.0;green,0.0;blue,0.0}, opacity={1.0}}, y tick label style={color={rgb,1:red,0.0;green,0.0;blue,0.0}, opacity={1.0}, rotate={0}}, ylabel style={at={(ticklabel cs:0.5)}, anchor=near ticklabel, at={{(ticklabel cs:0.5)}}, anchor={near ticklabel}, font={{\fontsize{11 pt}{14.3 pt}\selectfont}}, color={rgb,1:red,0.0;green,0.0;blue,0.0}, draw opacity={1.0}, rotate={0.0}}, ymajorgrids={true}, ymin={26.4456}, ymax={31.194399999999998}, ytick={{27.0,28.0,29.0,30.0,31.0}}, yticklabels={{$27$,$28$,$29$,$30$,$31$}}, ytick align={inside}, yticklabel style={font={{\fontsize{8 pt}{10.4 pt}\selectfont}}, color={rgb,1:red,0.0;green,0.0;blue,0.0}, draw opacity={1.0}, rotate={0.0}}, y grid style={color={rgb,1:red,0.0;green,0.0;blue,0.0}, draw opacity={0.1}, line width={0.5}, solid}, axis y line*={left}, y axis line style={color={rgb,1:red,0.0;green,0.0;blue,0.0}, draw opacity={1.0}, line width={1}, solid}, colorbar={false}]
    \addplot[color={rgb,1:red,0.0;green,0.0;blue,0.0}, name path={75c529a3-223b-44aa-8ae8-b72799561cd7}, area legend, fill={rgb,1:red,0.0;green,0.6056;blue,0.9787}, fill opacity={1.0}, draw opacity={1.0}, line width={0}, solid, forget plot]
        table[row sep={\\}]
        {
            \\
            0.5808586447955323  28.20957568305822  \\
            0.5892457149471652  28.22974798581759  \\
            0.5983905229957045  28.249920288576956  \\
            0.6083661137334528  28.270092591336326  \\
            0.6192398954145399  28.290264894095692  \\
            0.6310677329736953  28.310437196855062  \\
            0.6438875186536965  28.33060949961443  \\
            0.6577126044497048  28.3507818023738  \\
            0.6725255525596723  28.370954105133166  \\
            0.6882727034006926  28.391126407892536  \\
            0.7048600675142893  28.411298710651902  \\
            0.7221510120164515  28.431471013411272  \\
            0.7399661317259506  28.45164331617064  \\
            0.7580855715080977  28.47181561893001  \\
            0.776253906129377  28.491987921689375  \\
            0.7941874980561943  28.512160224448746  \\
            0.8115840571438406  28.532332527208112  \\
            0.8281339368077583  28.552504829967482  \\
            0.8435325378544489  28.57267713272685  \\
            0.8574930714711704  28.59284943548622  \\
            0.8697588715590474  28.613021738245585  \\
            0.880114453118064  28.633194041004955  \\
            0.8883945905636828  28.653366343764322  \\
            0.8944908330228498  28.673538646523692  \\
            0.8983550708035424  28.69371094928306  \\
            0.9  28.71388325204243  \\
            0.8994965777746149  28.734055554801795  \\
            0.8969687945120461  28.754227857561165  \\
            0.8925862869744207  28.774400160320532  \\
            0.8865554587634487  28.7945724630799  \\
            0.8791098469526683  28.81474476583927  \\
            0.8705004706711434  28.834917068598635  \\
            0.860986821231936  28.855089371358005  \\
            0.8508290148458061  28.87526167411737  \\
            0.8402814456455665  28.895433976876742  \\
            0.8295880709702519  28.91560627963611  \\
            0.8189792569288113  28.93577858239548  \\
            0.8086699336236569  28.955950885154845  \\
            0.7988586759470713  28.976123187914215  \\
            0.7897272516847715  28.99629549067358  \\
            0.7814401706501093  29.016467793432952  \\
            0.7741438257698809  29.03664009619232  \\
            0.7679649309475161  29.05681239895169  \\
            0.7630081162210567  29.076984701711055  \\
            0.7593527186599395  29.097157004470425  \\
            0.7570489856591305  29.11732930722979  \\
            0.7561140638860514  29.13750160998916  \\
            0.7565282626347396  29.15767391274853  \\
            0.7582321397848681  29.1778462155079  \\
            0.7611249531261499  29.198018518267265  \\
            0.7650649477755147  29.218190821026635  \\
            0.7698718174251706  29.238363123786  \\
            0.7753314956997097  29.25853542654537  \\
            0.7812032220724969  29.278707729304738  \\
            0.7872286064753771  29.29888003206411  \\
            0.7931422113049867  29.319052334823475  \\
            0.7986830013493683  29.339224637582845  \\
            0.8036059001247342  29.35939694034221  \\
            0.8076926484954441  29.37956924310158  \\
            0.8107611943105706  29.399741545860948  \\
            0.8126729481576266  29.419913848620318  \\
            0.813337410283447  29.440086151379685  \\
            0.8127138903798063  29.460258454139055  \\
            0.8108102832597656  29.48043075689842  \\
            0.8076791047701914  29.50060305965779  \\
            0.8034112090435681  29.520775362417158  \\
            0.7981277787900503  29.540947665176528  \\
            0.7919712885987116  29.561119967935895  \\
            0.7850961782273279  29.581292270695265  \\
            0.7776599378473703  29.60146457345463  \\
            0.7698152074804832  29.621636876214  \\
            0.7617033427029036  29.641809178973368  \\
            0.7534497174427419  29.661981481732738  \\
            0.7451608442224095  29.682153784492105  \\
            0.7369232141493763  29.702326087251475  \\
            0.7288036121181096  29.72249839001084  \\
            0.7208505608168381  29.74267069277021  \\
            0.7130964975518479  29.762842995529578  \\
            0.7055602909620122  29.783015298288948  \\
            0.698249754200422  29.803187601048315  \\
            0.6911638956123503  29.823359903807685  \\
            0.68429475241779  29.84353220656705  \\
            0.6776287612736713  29.86370450932642  \\
            0.6711477167111175  29.883876812085788  \\
            0.6648294421160916  29.904049114845158  \\
            0.6586483402711918  29.924221417604524  \\
            0.6525759986475379  29.944393720363895  \\
            0.6465820007531036  29.96456602312326  \\
            0.640635045291401  29.98473832588263  \\
            0.6347044090623462  30.004910628641998  \\
            0.628761718312478  30.025082931401368  \\
            0.6227829273349723  30.045255234160734  \\
            0.6167503516592183  30.065427536920105  \\
            0.6106545725991465  30.08559983967947  \\
            0.6044960233904246  30.105772142438838  \\
            0.5982860843718172  30.125944445198208  \\
            0.5920475523489541  30.146116747957574  \\
            0.5858144018162725  30.166289050716944  \\
            0.5796308161765656  30.18646135347631  \\
            0.5735495282722202  30.20663365623568  \\
            0.5676295648783237  30.226805958995048  \\
            0.5619335341642168  30.246978261754418  \\
            0.5565246252286562  30.267150564513784  \\
            0.5514635033786165  30.287322867273154  \\
            0.54680528442495  30.30749517003252  \\
            0.5425967579451954  30.32766747279189  \\
            0.5388740061883149  30.347839775551257  \\
            0.5356605354133573  30.368012078310628  \\
            0.5329660031673396  30.388184381069994  \\
            0.5307855909915685  30.408356683829364  \\
            0.5291000392296155  30.42852898658873  \\
            0.5278763301438454  30.4487012893481  \\
            0.5270689779250937  30.468873592107467  \\
            0.5266218594768243  30.489045894866837  \\
            0.5264704980103833  30.509218197626204  \\
            0.5265446925695582  30.529390500385574  \\
            0.5267713709921308  30.54956280314494  \\
            0.5270775322758292  30.56973510590431  \\
            0.5273931379238416  30.589907408663677  \\
            0.5276538118094011  30.610079711423047  \\
            0.5278032154932291  30.630252014182414  \\
            0.527794981397253  30.650424316941784  \\
            0.472205018602747  30.650424316941784  \\
            0.472196784506771  30.630252014182414  \\
            0.47234618819059887  30.610079711423047  \\
            0.47260686207615843  30.589907408663677  \\
            0.4729224677241708  30.56973510590431  \\
            0.47322862900786916  30.54956280314494  \\
            0.4734553074304418  30.529390500385574  \\
            0.47352950198961674  30.509218197626204  \\
            0.4733781405231758  30.489045894866837  \\
            0.47293102207490634  30.468873592107467  \\
            0.4721236698561546  30.4487012893481  \\
            0.4708999607703846  30.42852898658873  \\
            0.46921440900843153  30.408356683829364  \\
            0.4670339968326605  30.388184381069994  \\
            0.4643394645866426  30.368012078310628  \\
            0.46112599381168506  30.347839775551257  \\
            0.4574032420548047  30.32766747279189  \\
            0.4531947155750499  30.30749517003252  \\
            0.44853649662138356  30.287322867273154  \\
            0.44347537477134374  30.267150564513784  \\
            0.43806646583578324  30.246978261754418  \\
            0.4323704351216762  30.226805958995048  \\
            0.42645047172777983  30.20663365623568  \\
            0.4203691838234343  30.18646135347631  \\
            0.41418559818372747  30.166289050716944  \\
            0.40795244765104594  30.146116747957574  \\
            0.40171391562818276  30.125944445198208  \\
            0.3955039766095753  30.105772142438838  \\
            0.3893454274008535  30.08559983967947  \\
            0.3832496483407817  30.065427536920105  \\
            0.3772170726650277  30.045255234160734  \\
            0.37123828168752204  30.025082931401368  \\
            0.3652955909376538  30.004910628641998  \\
            0.35936495470859897  29.98473832588263  \\
            0.35341799924689643  29.96456602312326  \\
            0.3474240013524621  29.944393720363895  \\
            0.3413516597288082  29.924221417604524  \\
            0.33517055788390837  29.904049114845158  \\
            0.32885228328888255  29.883876812085788  \\
            0.3223712387263287  29.86370450932642  \\
            0.31570524758220997  29.84353220656705  \\
            0.3088361043876498  29.823359903807685  \\
            0.301750245799578  29.803187601048315  \\
            0.29443970903798783  29.783015298288948  \\
            0.2869035024481521  29.762842995529578  \\
            0.27914943918316193  29.74267069277021  \\
            0.2711963878818904  29.72249839001084  \\
            0.26307678585062366  29.702326087251475  \\
            0.25483915577759053  29.682153784492105  \\
            0.24655028255725803  29.661981481732738  \\
            0.23829665729709643  29.641809178973368  \\
            0.23018479251951685  29.621636876214  \\
            0.22234006215262975  29.60146457345463  \\
            0.2149038217726721  29.581292270695265  \\
            0.20802871140128837  29.561119967935895  \\
            0.2018722212099498  29.540947665176528  \\
            0.1965887909564319  29.520775362417158  \\
            0.1923208952298086  29.50060305965779  \\
            0.18918971674023444  29.48043075689842  \\
            0.1872861096201937  29.460258454139055  \\
            0.18666258971655297  29.440086151379685  \\
            0.18732705184237342  29.419913848620318  \\
            0.18923880568942936  29.399741545860948  \\
            0.19230735150455597  29.37956924310158  \\
            0.19639409987526574  29.35939694034221  \\
            0.20131699865063168  29.339224637582845  \\
            0.20685778869501326  29.319052334823475  \\
            0.21277139352462288  29.29888003206411  \\
            0.21879677792750302  29.278707729304738  \\
            0.22466850430029023  29.25853542654537  \\
            0.2301281825748293  29.238363123786  \\
            0.23493505222448535  29.218190821026635  \\
            0.23887504687385003  29.198018518267265  \\
            0.24176786021513186  29.1778462155079  \\
            0.24347173736526045  29.15767391274853  \\
            0.2438859361139486  29.13750160998916  \\
            0.24295101434086952  29.11732930722979  \\
            0.24064728134006053  29.097157004470425  \\
            0.23699188377894337  29.076984701711055  \\
            0.232035069052484  29.05681239895169  \\
            0.22585617423011906  29.03664009619232  \\
            0.21855982934989077  29.016467793432952  \\
            0.2102727483152284  28.99629549067358  \\
            0.20114132405292873  28.976123187914215  \\
            0.1913300663763431  28.955950885154845  \\
            0.18102074307118865  28.93577858239548  \\
            0.1704119290297481  28.91560627963611  \\
            0.1597185543544335  28.895433976876742  \\
            0.1491709851541939  28.87526167411737  \\
            0.13901317876806396  28.855089371358005  \\
            0.1294995293288566  28.834917068598635  \\
            0.12089015304733175  28.81474476583927  \\
            0.11344454123655134  28.7945724630799  \\
            0.10741371302557934  28.774400160320532  \\
            0.10303120548795386  28.754227857561165  \\
            0.10050342222538511  28.734055554801795  \\
            0.09999999999999998  28.71388325204243  \\
            0.10164492919645762  28.69371094928306  \\
            0.10550916697715013  28.673538646523692  \\
            0.1116054094363172  28.653366343764322  \\
            0.11988554688193598  28.633194041004955  \\
            0.13024112844095265  28.613021738245585  \\
            0.14250692852882968  28.59284943548622  \\
            0.15646746214555107  28.57267713272685  \\
            0.17186606319224174  28.552504829967482  \\
            0.18841594285615937  28.532332527208112  \\
            0.20581250194380568  28.512160224448746  \\
            0.2237460938706231  28.491987921689375  \\
            0.24191442849190226  28.47181561893001  \\
            0.2600338682740494  28.45164331617064  \\
            0.2778489879835485  28.431471013411272  \\
            0.29513993248571074  28.411298710651902  \\
            0.3117272965993075  28.391126407892536  \\
            0.3274744474403277  28.370954105133166  \\
            0.3422873955502952  28.3507818023738  \\
            0.35611248134630347  28.33060949961443  \\
            0.36893226702630466  28.310437196855062  \\
            0.38076010458546  28.290264894095692  \\
            0.3916338862665472  28.270092591336326  \\
            0.4016094770042955  28.249920288576956  \\
            0.41075428505283484  28.22974798581759  \\
            0.4191413552044677  28.20957568305822  \\
        }
        ;
    \addplot[color={rgb,1:red,0.0;green,0.0;blue,0.0}, name path={75c529a3-223b-44aa-8ae8-b72799561cd7}, area legend, fill={rgb,1:red,0.0;green,0.6056;blue,0.9787}, fill opacity={1.0}, draw opacity={1.0}, line width={0}, solid, forget plot]
        table[row sep={\\}]
        {
            \\
            1.612765494899509  28.151557031043716  \\
            1.6191558261064962  28.170774559933736  \\
            1.6252040278250304  28.18999208882376  \\
            1.6308900925421819  28.209209617713782  \\
            1.636215725451621  28.228427146603803  \\
            1.6412053598511895  28.247644675493824  \\
            1.6459061036109277  28.266862204383845  \\
            1.6503865868517347  28.28607973327387  \\
            1.6547347409916437  28.30529726216389  \\
            1.6590545954939357  28.32451479105391  \\
            1.6634622271535096  28.343732319943932  \\
            1.6680810348352226  28.362949848833953  \\
            1.6730365388052553  28.382167377723974  \\
            1.6784509181155638  28.401384906614  \\
            1.684437503060158  28.42060243550402  \\
            1.691095434538794  28.43981996439404  \\
            1.6985046906732435  28.45903749328406  \\
            1.7067216655785797  28.478255022174082  \\
            1.715775467622276  28.497472551064103  \\
            1.7256650857783318  28.516690079954127  \\
            1.7363575527793849  28.53590760884415  \\
            1.7477872117442095  28.55512513773417  \\
            1.7598561672257809  28.57434266662419  \\
            1.7724359703924935  28.59356019551421  \\
            1.785370549834469  28.612777724404236  \\
            1.7984803535990102  28.631995253294257  \\
            1.8115676150300288  28.651212782184277  \\
            1.8244225967610692  28.6704303110743  \\
            1.8368306071403218  28.68964783996432  \\
            1.848579525951016  28.70886536885434  \\
            1.8594675267281437  28.728082897744365  \\
            1.8693106465543725  28.747300426634386  \\
            1.8779498356801274  28.766517955524407  \\
            1.8852571222255485  28.785735484414428  \\
            1.8911405535080483  28.80495301330445  \\
            1.895547625181016  28.824170542194473  \\
            1.8984669803385976  28.843388071084494  \\
            1.8999282491481548  28.862605599974515  \\
            1.9  28.881823128864536  \\
            1.8987858791424836  28.901040657754557  \\
            1.8964191203150118  28.920258186644578  \\
            1.8930557020545105  28.939475715534602  \\
            1.8888665117286916  28.958693244424623  \\
            1.8840289365115797  28.977910773314644  \\
            1.8787183383367418  28.997128302204665  \\
            1.8730998797491405  29.016345831094686  \\
            1.8673211496018116  29.03556335998471  \\
            1.8615059924934871  29.05478088887473  \\
            1.8557498761744018  29.073998417764752  \\
            1.8501170408694132  29.093215946654773  \\
            1.8446395689424373  29.112433475544794  \\
            1.8393183989849646  29.131651004434815  \\
            1.8341261923869197  29.15086853332484  \\
            1.8290118501346408  29.17008606221486  \\
            1.823906380139697  29.18930359110488  \\
            1.8187297372457847  29.208521119994902  \\
            1.8133982043558217  29.227738648884923  \\
            1.8078318573607257  29.246956177774948  \\
            1.8019616602417272  29.26617370666497  \\
            1.7957357692218143  29.28539123555499  \\
            1.789124683401393  29.30460876444501  \\
            1.7821249592643866  29.32382629333503  \\
            1.7747613016037698  29.343043822225052  \\
            1.7670869466274546  29.362261351115077  \\
            1.7591823567482812  29.381478880005098  \\
            1.751152343618133  29.40069640889512  \\
            1.743121820038566  29.41991393778514  \\
            1.735230447608357  29.43913146667516  \\
            1.7276264922878886  29.458348995565185  \\
            1.7204602233676405  29.477566524455206  \\
            1.7138771934329171  29.496784053345227  \\
            1.7080117202924068  29.516001582235248  \\
            1.7029808602011283  29.53521911112527  \\
            1.6988791194844515  29.55443664001529  \\
            1.6957741034124805  29.573654168905314  \\
            1.6937032510130325  29.592871697795335  \\
            1.6926717557046052  29.612089226685356  \\
            1.692651726277032  29.631306755575377  \\
            1.6935826016984106  29.650524284465398  \\
            1.6953727962036569  29.669741813355422  \\
            1.6979025170155744  29.688959342245443  \\
            1.7010276643620834  29.708176871135464  \\
            1.7045846907826046  29.727394400025485  \\
            1.7083962632356102  29.746611928915506  \\
            1.7122775373447712  29.765829457805527  \\
            1.7160428195135056  29.78504698669555  \\
            1.7195123619917412  29.804264515585572  \\
            1.722519011595028  29.823482044475593  \\
            1.7249144184420158  29.842699573365614  \\
            1.7265745105126133  29.861917102255635  \\
            1.7274039560844279  29.88113463114566  \\
            1.72733937098823  29.90035216003568  \\
            1.7263510812618132  29.9195696889257  \\
            1.7244433223775295  29.938787217815722  \\
            1.7216528400435411  29.958004746705743  \\
            1.7180459492186244  29.977222275595764  \\
            1.7137142008045656  29.99643980448579  \\
            1.708768892276696  30.01565733337581  \\
            1.7033347322120296  30.03487486226583  \\
            1.697543023070525  30.05409239115585  \\
            1.691524756972505  30.073309920045872  \\
            1.6854040228619833  30.092527448935897  \\
            1.6792920998563643  30.111744977825918  \\
            1.6732825625304266  30.13096250671594  \\
            1.6674476532129727  30.15018003560596  \\
            1.6618360896201376  30.16939756449598  \\
            1.6564723799989343  30.188615093386  \\
            1.6513576196450723  30.207832622276026  \\
            1.6464716493521365  30.227050151166047  \\
            1.641776374552557  30.246267680056068  \\
            1.6372199789918433  30.26548520894609  \\
            1.6327417226034906  30.28470273783611  \\
            1.6282769919745135  30.30392026672613  \\
            1.6237622737800566  30.323137795616155  \\
            1.6191397454806908  30.342355324506176  \\
            1.6143612205660154  30.361572853396197  \\
            1.609391243624345  30.380790382286218  \\
            1.604209198601177  30.40000791117624  \\
            1.5988103664165683  30.419225440066263  \\
            1.5932059402568464  30.438442968956284  \\
            1.4067940597431536  30.438442968956284  \\
            1.4011896335834317  30.419225440066263  \\
            1.395790801398823  30.40000791117624  \\
            1.390608756375655  30.380790382286218  \\
            1.3856387794339846  30.361572853396197  \\
            1.3808602545193092  30.342355324506176  \\
            1.3762377262199434  30.323137795616155  \\
            1.3717230080254865  30.30392026672613  \\
            1.3672582773965094  30.28470273783611  \\
            1.3627800210081567  30.26548520894609  \\
            1.358223625447443  30.246267680056068  \\
            1.3535283506478635  30.227050151166047  \\
            1.3486423803549277  30.207832622276026  \\
            1.3435276200010657  30.188615093386  \\
            1.3381639103798624  30.16939756449598  \\
            1.3325523467870273  30.15018003560596  \\
            1.3267174374695734  30.13096250671594  \\
            1.3207079001436357  30.111744977825918  \\
            1.3145959771380167  30.092527448935897  \\
            1.308475243027495  30.073309920045872  \\
            1.302456976929475  30.05409239115585  \\
            1.2966652677879704  30.03487486226583  \\
            1.291231107723304  30.01565733337581  \\
            1.2862857991954344  29.99643980448579  \\
            1.2819540507813756  29.977222275595764  \\
            1.2783471599564589  29.958004746705743  \\
            1.2755566776224705  29.938787217815722  \\
            1.2736489187381868  29.9195696889257  \\
            1.27266062901177  29.90035216003568  \\
            1.2725960439155721  29.88113463114566  \\
            1.2734254894873867  29.861917102255635  \\
            1.2750855815579842  29.842699573365614  \\
            1.277480988404972  29.823482044475593  \\
            1.2804876380082588  29.804264515585572  \\
            1.2839571804864944  29.78504698669555  \\
            1.2877224626552288  29.765829457805527  \\
            1.2916037367643898  29.746611928915506  \\
            1.2954153092173954  29.727394400025485  \\
            1.2989723356379166  29.708176871135464  \\
            1.3020974829844256  29.688959342245443  \\
            1.3046272037963431  29.669741813355422  \\
            1.3064173983015894  29.650524284465398  \\
            1.307348273722968  29.631306755575377  \\
            1.3073282442953948  29.612089226685356  \\
            1.3062967489869675  29.592871697795335  \\
            1.3042258965875195  29.573654168905314  \\
            1.3011208805155485  29.55443664001529  \\
            1.2970191397988717  29.53521911112527  \\
            1.2919882797075932  29.516001582235248  \\
            1.2861228065670829  29.496784053345227  \\
            1.2795397766323595  29.477566524455206  \\
            1.2723735077121114  29.458348995565185  \\
            1.264769552391643  29.43913146667516  \\
            1.256878179961434  29.41991393778514  \\
            1.248847656381867  29.40069640889512  \\
            1.2408176432517188  29.381478880005098  \\
            1.2329130533725454  29.362261351115077  \\
            1.2252386983962302  29.343043822225052  \\
            1.2178750407356134  29.32382629333503  \\
            1.210875316598607  29.30460876444501  \\
            1.2042642307781857  29.28539123555499  \\
            1.1980383397582728  29.26617370666497  \\
            1.1921681426392743  29.246956177774948  \\
            1.1866017956441783  29.227738648884923  \\
            1.1812702627542153  29.208521119994902  \\
            1.176093619860303  29.18930359110488  \\
            1.1709881498653592  29.17008606221486  \\
            1.1658738076130803  29.15086853332484  \\
            1.1606816010150354  29.131651004434815  \\
            1.1553604310575627  29.112433475544794  \\
            1.1498829591305868  29.093215946654773  \\
            1.1442501238255982  29.073998417764752  \\
            1.1384940075065129  29.05478088887473  \\
            1.1326788503981884  29.03556335998471  \\
            1.1269001202508595  29.016345831094686  \\
            1.1212816616632582  28.997128302204665  \\
            1.1159710634884203  28.977910773314644  \\
            1.1111334882713084  28.958693244424623  \\
            1.1069442979454895  28.939475715534602  \\
            1.1035808796849882  28.920258186644578  \\
            1.1012141208575164  28.901040657754557  \\
            1.1  28.881823128864536  \\
            1.1000717508518452  28.862605599974515  \\
            1.1015330196614024  28.843388071084494  \\
            1.104452374818984  28.824170542194473  \\
            1.1088594464919517  28.80495301330445  \\
            1.1147428777744515  28.785735484414428  \\
            1.1220501643198726  28.766517955524407  \\
            1.1306893534456275  28.747300426634386  \\
            1.1405324732718563  28.728082897744365  \\
            1.151420474048984  28.70886536885434  \\
            1.1631693928596782  28.68964783996432  \\
            1.1755774032389308  28.6704303110743  \\
            1.1884323849699712  28.651212782184277  \\
            1.2015196464009898  28.631995253294257  \\
            1.214629450165531  28.612777724404236  \\
            1.2275640296075065  28.59356019551421  \\
            1.2401438327742191  28.57434266662419  \\
            1.2522127882557905  28.55512513773417  \\
            1.2636424472206151  28.53590760884415  \\
            1.2743349142216682  28.516690079954127  \\
            1.284224532377724  28.497472551064103  \\
            1.2932783344214203  28.478255022174082  \\
            1.3014953093267565  28.45903749328406  \\
            1.308904565461206  28.43981996439404  \\
            1.315562496939842  28.42060243550402  \\
            1.3215490818844362  28.401384906614  \\
            1.3269634611947447  28.382167377723974  \\
            1.3319189651647774  28.362949848833953  \\
            1.3365377728464904  28.343732319943932  \\
            1.3409454045060643  28.32451479105391  \\
            1.3452652590083563  28.30529726216389  \\
            1.3496134131482653  28.28607973327387  \\
            1.3540938963890723  28.266862204383845  \\
            1.3587946401488105  28.247644675493824  \\
            1.363784274548379  28.228427146603803  \\
            1.3691099074578181  28.209209617713782  \\
            1.3747959721749696  28.18999208882376  \\
            1.3808441738935038  28.170774559933736  \\
            1.387234505100491  28.151557031043716  \\
        }
        ;
    \addplot[color={rgb,1:red,0.0;green,0.0;blue,0.0}, name path={75c529a3-223b-44aa-8ae8-b72799561cd7}, area legend, fill={rgb,1:red,0.0;green,0.6056;blue,0.9787}, fill opacity={1.0}, draw opacity={1.0}, line width={0}, solid, forget plot]
        table[row sep={\\}]
        {
            \\
            2.525598998510192  26.598642279849745  \\
            2.5249024242950004  26.628864833865396  \\
            2.5236341124198005  26.659087387881044  \\
            2.5218834763704656  26.689309941896695  \\
            2.5197684672332086  26.719532495912343  \\
            2.517422466742593  26.749755049927995  \\
            2.5149805078379437  26.779977603943642  \\
            2.5125667777830754  26.810200157959294  \\
            2.510284947666048  26.84042271197494  \\
            2.508212232053958  26.870645265990593  \\
            2.506397370759539  26.900867820006244  \\
            2.5048620922756117  26.931090374021892  \\
            2.5036051754656836  26.961312928037543  \\
            2.5026080222822378  26.99153548205319  \\
            2.5018406787366625  27.021758036068842  \\
            2.5012674376589805  27.05198059008449  \\
            2.5008514462164717  27.08220314410014  \\
            2.500558045881076  27.11242569811579  \\
            2.500356832781047  27.14264825213144  \\
            2.50022260857798  27.17287080614709  \\
            2.5001354883515483  27.20309336016274  \\
            2.500080453973503  27.23331591417839  \\
            2.500046611131125  27.26353846819404  \\
            2.5000263497609523  27.29376102220969  \\
            2.500014541788867  27.323983576225338  \\
            2.500007850861737  27.35420613024099  \\
            2.5000041835235396  27.384428684256637  \\
            2.5000022819039875  27.41465123827229  \\
            2.5000014428626787  27.444873792287936  \\
            2.5000013445382407  27.475096346303587  \\
            2.500001965133116  27.505318900319235  \\
            2.5000035879154447  27.535541454334886  \\
            2.5000068990918107  27.565764008350534  \\
            2.500013200271038  27.595986562366186  \\
            2.5000247736627186  27.626209116381837  \\
            2.500045454296182  27.656431670397485  \\
            2.5000814764573995  27.686654224413136  \\
            2.5001426664252526  27.716876778428784  \\
            2.500244043690815  27.747099332444435  \\
            2.5004078600936945  27.777321886460083  \\
            2.500666043003474  27.807544440475734  \\
            2.501062910315703  27.837766994491382  \\
            2.501657894089207  27.867989548507033  \\
            2.502527859438812  27.89821210252268  \\
            2.5037684626138503  27.928434656538332  \\
            2.5054938969655787  27.958657210553984  \\
            2.50783437580184  27.98887976456963  \\
            2.510930842741178  28.019102318585283  \\
            2.514926711683559  28.04932487260093  \\
            2.5199569147913805  28.079547426616582  \\
            2.5261351261736853  28.10976998063223  \\
            2.5335406294981873  28.13999253464788  \\
            2.5422067688256362  28.17021508866353  \\
            2.552113111399731  28.20043764267918  \\
            2.563183235556329  28.230660196694828  \\
            2.5752893856803665  28.26088275071048  \\
            2.588264165461145  28.29110530472613  \\
            2.6019181440291637  28.32132785874178  \\
            2.6160609943744713  28.35155041275743  \\
            2.6305228737861435  28.381772966773077  \\
            2.645172451816341  28.41199552078873  \\
            2.659928425952656  28.442218074804376  \\
            2.6747624890870405  28.472440628820028  \\
            2.6896932856864195  28.502663182835676  \\
            2.7047725373965306  28.532885736851327  \\
            2.7200658231646186  28.563108290866975  \\
            2.7356311487649574  28.593330844882626  \\
            2.7514983244704747  28.623553398898274  \\
            2.767651426050969  28.653775952913925  \\
            2.7840155903212436  28.683998506929576  \\
            2.8004485233783902  28.714221060945224  \\
            2.816736724114642  28.744443614960876  \\
            2.832596658095178  28.774666168976523  \\
            2.847681761421792  28.804888722992175  \\
            2.8615967583769035  28.835111277007822  \\
            2.8739207978053822  28.865333831023474  \\
            2.8842399474699243  28.89555638503912  \\
            2.8921875745704253  28.925778939054773  \\
            2.897488469135147  28.95600149307042  \\
            2.9  28.986224047086072  \\
            2.899742056805747  29.016446601101723  \\
            2.8969078052199957  29.04666915511737  \\
            2.8918497061699173  29.076891709133022  \\
            2.885039551589299  29.10711426314867  \\
            2.877006582481274  29.13733681716432  \\
            2.8682628271747315  29.16755937117997  \\
            2.859228328976979  29.19778192519562  \\
            2.8501699423918616  29.22800447921127  \\
            2.8411654837854865  29.25822703322692  \\
            2.8321005541182886  29.288449587242567  \\
            2.8226992615831072  29.31867214125822  \\
            2.8125836894490233  29.348894695273867  \\
            2.8013516456930807  29.379117249289518  \\
            2.7886590718715007  29.40933980330517  \\
            2.774293030041459  29.439562357320817  \\
            2.758223366910986  29.46978491133647  \\
            2.7406253662964666  29.500007465352116  \\
            2.7218709775720993  29.530230019367767  \\
            2.7024914695512616  29.560452573383415  \\
            2.6831186536355087  29.590675127399066  \\
            2.6644144995267642  29.620897681414714  \\
            2.646999773809122  29.651120235430366  \\
            2.6313913878338857  29.681342789446013  \\
            2.6179558598132386  29.711565343461665  \\
            2.60688325111464  29.741787897477316  \\
            2.598182726042671  29.772010451492964  \\
            2.591698014251816  29.802233005508615  \\
            2.5871388682710306  29.832455559524263  \\
            2.5841232616191583  29.862678113539914  \\
            2.582224555647465  29.892900667555562  \\
            2.5810180500448783  29.923123221571213  \\
            2.580122044108535  29.95334577558686  \\
            2.579229596518254  29.983568329602512  \\
            2.5781284392064547  30.01379088361816  \\
            2.576707876799305  30.04401343763381  \\
            2.5749529128507826  30.074235991649463  \\
            2.572927210294095  30.10445854566511  \\
            2.570747712219684  30.134681099680762  \\
            2.5685546850123564  30.16490365369641  \\
            2.5664814521834973  30.19512620771206  \\
            2.5646280445396195  30.22534876172771  \\
            2.563042353352286  30.25557131574336  \\
            2.561711195301141  30.285793869759008  \\
            2.5605621493371125  30.31601642377466  \\
            2.5594753596638933  30.346238977790307  \\
            2.5583030026625226  30.37646153180596  \\
            2.55689304586384  30.406684085821606  \\
            2.5551134544909786  30.436906639837257  \\
            2.5528731748259914  30.46712919385291  \\
            2.5501369670936973  30.497351747868557  \\
            2.546932296179258  30.527574301884208  \\
            2.543347783472259  30.557796855899856  \\
            2.5395239427448653  30.588019409915507  \\
            2.5356378785975378  30.618241963931155  \\
            2.5318842072192385  30.648464517946806  \\
            2.5284546444524834  30.678687071962454  \\
            2.525518551742064  30.708909625978105  \\
            2.523206342794094  30.739132179993753  \\
            2.521597152775446  30.769354734009404  \\
            2.5207116573267068  30.799577288025056  \\
            2.5205104573102872  30.829799842040703  \\
            2.5208980263152347  30.860022396056355  \\
            2.521731827104502  30.890244950072002  \\
            2.522835809045504  30.920467504087654  \\
            2.524017091587566  30.9506900581033  \\
            2.5250842504788187  30.980912612118953  \\
            2.525865326630911  31.0111351661346  \\
            2.5262235669380826  31.041357720150252  \\
            2.4737764330619174  31.041357720150252  \\
            2.474134673369089  31.0111351661346  \\
            2.4749157495211813  30.980912612118953  \\
            2.475982908412434  30.9506900581033  \\
            2.477164190954496  30.920467504087654  \\
            2.478268172895498  30.890244950072002  \\
            2.4791019736847653  30.860022396056355  \\
            2.4794895426897128  30.829799842040703  \\
            2.4792883426732932  30.799577288025056  \\
            2.478402847224554  30.769354734009404  \\
            2.476793657205906  30.739132179993753  \\
            2.474481448257936  30.708909625978105  \\
            2.4715453555475166  30.678687071962454  \\
            2.4681157927807615  30.648464517946806  \\
            2.4643621214024622  30.618241963931155  \\
            2.4604760572551347  30.588019409915507  \\
            2.456652216527741  30.557796855899856  \\
            2.453067703820742  30.527574301884208  \\
            2.4498630329063027  30.497351747868557  \\
            2.4471268251740086  30.46712919385291  \\
            2.4448865455090214  30.436906639837257  \\
            2.44310695413616  30.406684085821606  \\
            2.4416969973374774  30.37646153180596  \\
            2.4405246403361067  30.346238977790307  \\
            2.4394378506628875  30.31601642377466  \\
            2.438288804698859  30.285793869759008  \\
            2.436957646647714  30.25557131574336  \\
            2.4353719554603805  30.22534876172771  \\
            2.4335185478165027  30.19512620771206  \\
            2.4314453149876436  30.16490365369641  \\
            2.429252287780316  30.134681099680762  \\
            2.427072789705905  30.10445854566511  \\
            2.4250470871492174  30.074235991649463  \\
            2.423292123200695  30.04401343763381  \\
            2.4218715607935453  30.01379088361816  \\
            2.420770403481746  29.983568329602512  \\
            2.419877955891465  29.95334577558686  \\
            2.4189819499551217  29.923123221571213  \\
            2.417775444352535  29.892900667555562  \\
            2.4158767383808417  29.862678113539914  \\
            2.4128611317289694  29.832455559524263  \\
            2.408301985748184  29.802233005508615  \\
            2.401817273957329  29.772010451492964  \\
            2.39311674888536  29.741787897477316  \\
            2.3820441401867614  29.711565343461665  \\
            2.3686086121661143  29.681342789446013  \\
            2.353000226190878  29.651120235430366  \\
            2.3355855004732358  29.620897681414714  \\
            2.3168813463644913  29.590675127399066  \\
            2.2975085304487384  29.560452573383415  \\
            2.2781290224279007  29.530230019367767  \\
            2.2593746337035334  29.500007465352116  \\
            2.241776633089014  29.46978491133647  \\
            2.225706969958541  29.439562357320817  \\
            2.2113409281284993  29.40933980330517  \\
            2.1986483543069193  29.379117249289518  \\
            2.1874163105509767  29.348894695273867  \\
            2.1773007384168928  29.31867214125822  \\
            2.1678994458817114  29.288449587242567  \\
            2.1588345162145135  29.25822703322692  \\
            2.1498300576081384  29.22800447921127  \\
            2.140771671023021  29.19778192519562  \\
            2.1317371728252685  29.16755937117997  \\
            2.122993417518726  29.13733681716432  \\
            2.114960448410701  29.10711426314867  \\
            2.1081502938300827  29.076891709133022  \\
            2.1030921947800043  29.04666915511737  \\
            2.100257943194253  29.016446601101723  \\
            2.1  28.986224047086072  \\
            2.102511530864853  28.95600149307042  \\
            2.1078124254295747  28.925778939054773  \\
            2.1157600525300757  28.89555638503912  \\
            2.1260792021946178  28.865333831023474  \\
            2.1384032416230965  28.835111277007822  \\
            2.152318238578208  28.804888722992175  \\
            2.167403341904822  28.774666168976523  \\
            2.183263275885358  28.744443614960876  \\
            2.1995514766216098  28.714221060945224  \\
            2.2159844096787564  28.683998506929576  \\
            2.232348573949031  28.653775952913925  \\
            2.2485016755295253  28.623553398898274  \\
            2.2643688512350426  28.593330844882626  \\
            2.2799341768353814  28.563108290866975  \\
            2.2952274626034694  28.532885736851327  \\
            2.3103067143135805  28.502663182835676  \\
            2.3252375109129595  28.472440628820028  \\
            2.340071574047344  28.442218074804376  \\
            2.354827548183659  28.41199552078873  \\
            2.3694771262138565  28.381772966773077  \\
            2.3839390056255287  28.35155041275743  \\
            2.3980818559708363  28.32132785874178  \\
            2.411735834538855  28.29110530472613  \\
            2.4247106143196335  28.26088275071048  \\
            2.436816764443671  28.230660196694828  \\
            2.447886888600269  28.20043764267918  \\
            2.4577932311743638  28.17021508866353  \\
            2.4664593705018127  28.13999253464788  \\
            2.4738648738263147  28.10976998063223  \\
            2.4800430852086195  28.079547426616582  \\
            2.485073288316441  28.04932487260093  \\
            2.489069157258822  28.019102318585283  \\
            2.49216562419816  27.98887976456963  \\
            2.4945061030344213  27.958657210553984  \\
            2.4962315373861497  27.928434656538332  \\
            2.497472140561188  27.89821210252268  \\
            2.498342105910793  27.867989548507033  \\
            2.498937089684297  27.837766994491382  \\
            2.499333956996526  27.807544440475734  \\
            2.4995921399063055  27.777321886460083  \\
            2.499755956309185  27.747099332444435  \\
            2.4998573335747474  27.716876778428784  \\
            2.4999185235426005  27.686654224413136  \\
            2.499954545703818  27.656431670397485  \\
            2.4999752263372814  27.626209116381837  \\
            2.499986799728962  27.595986562366186  \\
            2.4999931009081893  27.565764008350534  \\
            2.4999964120845553  27.535541454334886  \\
            2.499998034866884  27.505318900319235  \\
            2.4999986554617593  27.475096346303587  \\
            2.4999985571373213  27.444873792287936  \\
            2.4999977180960125  27.41465123827229  \\
            2.4999958164764604  27.384428684256637  \\
            2.499992149138263  27.35420613024099  \\
            2.499985458211133  27.323983576225338  \\
            2.4999736502390477  27.29376102220969  \\
            2.499953388868875  27.26353846819404  \\
            2.499919546026497  27.23331591417839  \\
            2.4998645116484517  27.20309336016274  \\
            2.49977739142202  27.17287080614709  \\
            2.499643167218953  27.14264825213144  \\
            2.499441954118924  27.11242569811579  \\
            2.4991485537835283  27.08220314410014  \\
            2.4987325623410195  27.05198059008449  \\
            2.4981593212633375  27.021758036068842  \\
            2.4973919777177622  26.99153548205319  \\
            2.4963948245343164  26.961312928037543  \\
            2.4951379077243883  26.931090374021892  \\
            2.493602629240461  26.900867820006244  \\
            2.491787767946042  26.870645265990593  \\
            2.489715052333952  26.84042271197494  \\
            2.4874332222169246  26.810200157959294  \\
            2.4850194921620563  26.779977603943642  \\
            2.482577533257407  26.749755049927995  \\
            2.4802315327667914  26.719532495912343  \\
            2.4781165236295344  26.689309941896695  \\
            2.4763658875801995  26.659087387881044  \\
            2.4750975757049996  26.628864833865396  \\
            2.474401001489808  26.598642279849745  \\
        }
        ;
    \addplot[color={rgb,1:red,0.0;green,0.0;blue,0.0}, name path={10180b89-01dd-4b1a-a9df-86e3827f5bd4}, area legend, fill={rgb,1:red,0.8889;green,0.4356;blue,0.2781}, fill opacity={0.75}, draw opacity={1.0}, line width={1}, solid, forget plot]
        table[row sep={\\}]
        {
            \\
            0.5  28.19  \\
            0.3  28.19  \\
            0.7  28.19  \\
            0.5  28.19  \\
            0.5  28.68  \\
        }
        ;
    \addplot[color={rgb,1:red,0.0;green,0.0;blue,0.0}, name path={10180b89-01dd-4b1a-a9df-86e3827f5bd4}, area legend, fill={rgb,1:red,0.8889;green,0.4356;blue,0.2781}, fill opacity={0.75}, draw opacity={1.0}, line width={1}, solid, forget plot]
        table[row sep={\\}]
        {
            \\
            0.9  28.68  \\
            0.9  29.060000000000002  \\
            0.09999999999999998  29.060000000000002  \\
            0.09999999999999998  28.68  \\
            0.9  28.68  \\
            0.9  29.060000000000002  \\
        }
        ;
    \addplot[color={rgb,1:red,0.0;green,0.0;blue,0.0}, name path={10180b89-01dd-4b1a-a9df-86e3827f5bd4}, area legend, fill={rgb,1:red,0.8889;green,0.4356;blue,0.2781}, fill opacity={0.75}, draw opacity={1.0}, line width={1}, solid, forget plot]
        table[row sep={\\}]
        {
            \\
            0.9  29.5025  \\
            0.09999999999999998  29.5025  \\
            0.09999999999999998  29.060000000000002  \\
            0.9  29.060000000000002  \\
            0.9  29.5025  \\
            0.5  29.5025  \\
        }
        ;
    \addplot[color={rgb,1:red,0.0;green,0.0;blue,0.0}, name path={10180b89-01dd-4b1a-a9df-86e3827f5bd4}, area legend, fill={rgb,1:red,0.8889;green,0.4356;blue,0.2781}, fill opacity={0.75}, draw opacity={1.0}, line width={1}, solid, forget plot]
        table[row sep={\\}]
        {
            \\
            0.5  30.67  \\
            0.3  30.67  \\
            0.7  30.67  \\
            0.5  30.67  \\
            0.5  29.5025  \\
        }
        ;
    \addplot[color={rgb,1:red,0.0;green,0.0;blue,0.0}, name path={10180b89-01dd-4b1a-a9df-86e3827f5bd4}, area legend, fill={rgb,1:red,0.8889;green,0.4356;blue,0.2781}, fill opacity={0.75}, draw opacity={1.0}, line width={1}, solid, forget plot]
        table[row sep={\\}]
        {
            \\
            1.5  28.15  \\
            1.3  28.15  \\
            1.7  28.15  \\
            1.5  28.15  \\
            1.5  28.785  \\
        }
        ;
    \addplot[color={rgb,1:red,0.0;green,0.0;blue,0.0}, name path={10180b89-01dd-4b1a-a9df-86e3827f5bd4}, area legend, fill={rgb,1:red,0.8889;green,0.4356;blue,0.2781}, fill opacity={0.75}, draw opacity={1.0}, line width={1}, solid, forget plot]
        table[row sep={\\}]
        {
            \\
            1.9  28.785  \\
            1.9  29.16  \\
            1.1  29.16  \\
            1.1  28.785  \\
            1.9  28.785  \\
            1.9  29.16  \\
        }
        ;
    \addplot[color={rgb,1:red,0.0;green,0.0;blue,0.0}, name path={10180b89-01dd-4b1a-a9df-86e3827f5bd4}, area legend, fill={rgb,1:red,0.8889;green,0.4356;blue,0.2781}, fill opacity={0.75}, draw opacity={1.0}, line width={1}, solid, forget plot]
        table[row sep={\\}]
        {
            \\
            1.9  29.744999999999997  \\
            1.1  29.744999999999997  \\
            1.1  29.16  \\
            1.9  29.16  \\
            1.9  29.744999999999997  \\
            1.5  29.744999999999997  \\
        }
        ;
    \addplot[color={rgb,1:red,0.0;green,0.0;blue,0.0}, name path={10180b89-01dd-4b1a-a9df-86e3827f5bd4}, area legend, fill={rgb,1:red,0.8889;green,0.4356;blue,0.2781}, fill opacity={0.75}, draw opacity={1.0}, line width={1}, solid, forget plot]
        table[row sep={\\}]
        {
            \\
            1.5  30.44  \\
            1.3  30.44  \\
            1.7  30.44  \\
            1.5  30.44  \\
            1.5  29.744999999999997  \\
        }
        ;
    \addplot[color={rgb,1:red,0.0;green,0.0;blue,0.0}, name path={10180b89-01dd-4b1a-a9df-86e3827f5bd4}, area legend, fill={rgb,1:red,0.8889;green,0.4356;blue,0.2781}, fill opacity={0.75}, draw opacity={1.0}, line width={1}, solid, forget plot]
        table[row sep={\\}]
        {
            \\
            2.5  28.36  \\
            2.3  28.36  \\
            2.7  28.36  \\
            2.5  28.36  \\
            2.5  28.7825  \\
        }
        ;
    \addplot[color={rgb,1:red,0.0;green,0.0;blue,0.0}, name path={10180b89-01dd-4b1a-a9df-86e3827f5bd4}, area legend, fill={rgb,1:red,0.8889;green,0.4356;blue,0.2781}, fill opacity={0.75}, draw opacity={1.0}, line width={1}, solid, forget plot]
        table[row sep={\\}]
        {
            \\
            2.9  28.7825  \\
            2.9  29.06  \\
            2.1  29.06  \\
            2.1  28.7825  \\
            2.9  28.7825  \\
            2.9  29.06  \\
        }
        ;
    \addplot[color={rgb,1:red,0.0;green,0.0;blue,0.0}, name path={10180b89-01dd-4b1a-a9df-86e3827f5bd4}, area legend, fill={rgb,1:red,0.8889;green,0.4356;blue,0.2781}, fill opacity={0.75}, draw opacity={1.0}, line width={1}, solid, forget plot]
        table[row sep={\\}]
        {
            \\
            2.9  29.412499999999998  \\
            2.1  29.412499999999998  \\
            2.1  29.06  \\
            2.9  29.06  \\
            2.9  29.412499999999998  \\
            2.5  29.412499999999998  \\
        }
        ;
    \addplot[color={rgb,1:red,0.0;green,0.0;blue,0.0}, name path={10180b89-01dd-4b1a-a9df-86e3827f5bd4}, area legend, fill={rgb,1:red,0.8889;green,0.4356;blue,0.2781}, fill opacity={0.75}, draw opacity={1.0}, line width={1}, solid, forget plot]
        table[row sep={\\}]
        {
            \\
            2.5  30.08  \\
            2.3  30.08  \\
            2.7  30.08  \\
            2.5  30.08  \\
            2.5  29.412499999999998  \\
        }
        ;
    \addplot[color={rgb,1:red,0.8889;green,0.4356;blue,0.2781}, name path={61e61772-6d12-47c3-9793-ab4d9a09cc81}, only marks, draw opacity={1.0}, line width={0}, solid, mark={*}, mark size={3.0 pt}, mark repeat={1}, mark options={color={rgb,1:red,0.0;green,0.0;blue,0.0}, draw opacity={1.0}, fill={rgb,1:red,0.8889;green,0.4356;blue,0.2781}, fill opacity={1.0}, line width={0.75}, rotate={0}, solid}, forget plot]
        table[row sep={\\}]
        {
            \\
            2.5  30.51  \\
            2.5  26.58  \\
            2.5  31.06  \\
            2.5  30.37  \\
        }
        ;
    \addplot[color={rgb,1:red,0.8889;green,0.4356;blue,0.2781}, name path={9a551b69-103b-4eca-957e-4aa82a4d02be}, draw opacity={1.0}, line width={0}, solid, forget plot]
        table[row sep={\\}]
        {
            \\
            0.5  28.19  \\
            0.3  28.19  \\
            0.7  28.19  \\
            0.5  28.19  \\
            0.5  28.68  \\
        }
        ;
    \addplot[color={rgb,1:red,0.8889;green,0.4356;blue,0.2781}, name path={9a551b69-103b-4eca-957e-4aa82a4d02be}, draw opacity={1.0}, line width={0}, solid, forget plot]
        table[row sep={\\}]
        {
            \\
            0.9  28.68  \\
            0.9  29.060000000000002  \\
            0.09999999999999998  29.060000000000002  \\
            0.09999999999999998  28.68  \\
            0.9  28.68  \\
            0.9  29.060000000000002  \\
        }
        ;
    \addplot[color={rgb,1:red,0.8889;green,0.4356;blue,0.2781}, name path={9a551b69-103b-4eca-957e-4aa82a4d02be}, draw opacity={1.0}, line width={0}, solid, forget plot]
        table[row sep={\\}]
        {
            \\
            0.9  29.5025  \\
            0.09999999999999998  29.5025  \\
            0.09999999999999998  29.060000000000002  \\
            0.9  29.060000000000002  \\
            0.9  29.5025  \\
            0.5  29.5025  \\
        }
        ;
    \addplot[color={rgb,1:red,0.8889;green,0.4356;blue,0.2781}, name path={9a551b69-103b-4eca-957e-4aa82a4d02be}, draw opacity={1.0}, line width={0}, solid, forget plot]
        table[row sep={\\}]
        {
            \\
            0.5  30.67  \\
            0.3  30.67  \\
            0.7  30.67  \\
            0.5  30.67  \\
            0.5  29.5025  \\
        }
        ;
    \addplot[color={rgb,1:red,0.8889;green,0.4356;blue,0.2781}, name path={9a551b69-103b-4eca-957e-4aa82a4d02be}, draw opacity={1.0}, line width={0}, solid, forget plot]
        table[row sep={\\}]
        {
            \\
            1.5  28.15  \\
            1.3  28.15  \\
            1.7  28.15  \\
            1.5  28.15  \\
            1.5  28.785  \\
        }
        ;
    \addplot[color={rgb,1:red,0.8889;green,0.4356;blue,0.2781}, name path={9a551b69-103b-4eca-957e-4aa82a4d02be}, draw opacity={1.0}, line width={0}, solid, forget plot]
        table[row sep={\\}]
        {
            \\
            1.9  28.785  \\
            1.9  29.16  \\
            1.1  29.16  \\
            1.1  28.785  \\
            1.9  28.785  \\
            1.9  29.16  \\
        }
        ;
    \addplot[color={rgb,1:red,0.8889;green,0.4356;blue,0.2781}, name path={9a551b69-103b-4eca-957e-4aa82a4d02be}, draw opacity={1.0}, line width={0}, solid, forget plot]
        table[row sep={\\}]
        {
            \\
            1.9  29.744999999999997  \\
            1.1  29.744999999999997  \\
            1.1  29.16  \\
            1.9  29.16  \\
            1.9  29.744999999999997  \\
            1.5  29.744999999999997  \\
        }
        ;
    \addplot[color={rgb,1:red,0.8889;green,0.4356;blue,0.2781}, name path={9a551b69-103b-4eca-957e-4aa82a4d02be}, draw opacity={1.0}, line width={0}, solid, forget plot]
        table[row sep={\\}]
        {
            \\
            1.5  30.44  \\
            1.3  30.44  \\
            1.7  30.44  \\
            1.5  30.44  \\
            1.5  29.744999999999997  \\
        }
        ;
    \addplot[color={rgb,1:red,0.8889;green,0.4356;blue,0.2781}, name path={9a551b69-103b-4eca-957e-4aa82a4d02be}, draw opacity={1.0}, line width={0}, solid, forget plot]
        table[row sep={\\}]
        {
            \\
            2.5  28.36  \\
            2.3  28.36  \\
            2.7  28.36  \\
            2.5  28.36  \\
            2.5  28.7825  \\
        }
        ;
    \addplot[color={rgb,1:red,0.8889;green,0.4356;blue,0.2781}, name path={9a551b69-103b-4eca-957e-4aa82a4d02be}, draw opacity={1.0}, line width={0}, solid, forget plot]
        table[row sep={\\}]
        {
            \\
            2.9  28.7825  \\
            2.9  29.06  \\
            2.1  29.06  \\
            2.1  28.7825  \\
            2.9  28.7825  \\
            2.9  29.06  \\
        }
        ;
    \addplot[color={rgb,1:red,0.8889;green,0.4356;blue,0.2781}, name path={9a551b69-103b-4eca-957e-4aa82a4d02be}, draw opacity={1.0}, line width={0}, solid, forget plot]
        table[row sep={\\}]
        {
            \\
            2.9  29.412499999999998  \\
            2.1  29.412499999999998  \\
            2.1  29.06  \\
            2.9  29.06  \\
            2.9  29.412499999999998  \\
            2.5  29.412499999999998  \\
        }
        ;
    \addplot[color={rgb,1:red,0.8889;green,0.4356;blue,0.2781}, name path={9a551b69-103b-4eca-957e-4aa82a4d02be}, draw opacity={1.0}, line width={0}, solid, forget plot]
        table[row sep={\\}]
        {
            \\
            2.5  30.08  \\
            2.3  30.08  \\
            2.7  30.08  \\
            2.5  30.08  \\
            2.5  29.412499999999998  \\
        }
        ;
    \addplot[color={rgb,1:red,0.2422;green,0.6433;blue,0.3044}, name path={c77f491b-a887-497c-b501-706bd513e328}, only marks, draw opacity={1.0}, line width={0}, solid, mark={*}, mark size={0.75 pt}, mark repeat={1}, mark options={color={rgb,1:red,0.0;green,0.0;blue,0.0}, draw opacity={1.0}, fill={rgb,1:red,0.0;green,0.0;blue,0.0}, fill opacity={1.0}, line width={0.75}, rotate={0}, solid}, forget plot]
        table[row sep={\\}]
        {
            \\
            0.4769514414452983  30.05  \\
            0.3931249867832047  29.38  \\
            0.42557454258720634  28.97  \\
            0.5078835035254767  28.66  \\
            0.3453905723441323  28.48  \\
            0.16722852951545913  28.73  \\
            0.32938902057080605  29.03  \\
            0.43068596250514113  29.75  \\
            0.6561337785600503  29.38  \\
            0.773503774367789  28.99  \\
            0.11634119971841156  28.65  \\
            0.8073810451879212  28.68  \\
            0.8154758478446675  29.43  \\
            0.503056065718657  29.47  \\
            0.2205537472154892  29.38  \\
            0.5291563767478574  29.19  \\
            0.6958460987995856  28.63  \\
            0.604120612077402  28.76  \\
            0.2399216432491469  28.86  \\
            0.6072500695258191  29.48  \\
            0.23761457115666784  28.94  \\
            0.7742540817098751  29.38  \\
            0.8331388655612249  28.85  \\
            0.570508540267434  28.54  \\
            0.5676998896364608  28.34  \\
            0.4874028722212232  30.67  \\
            0.8809193920633438  28.68  \\
            0.768184642515535  29.34  \\
            0.4509016373907066  29.53  \\
            0.30697631882372883  28.75  \\
            0.5531292970792477  28.19  \\
            0.44015827914920125  29.68  \\
            0.19714075477732101  29.51  \\
            0.7383802654629961  28.61  \\
            0.2713302502114301  29.78  \\
            0.48001433706467156  30.16  \\
            0.32079301609343136  29.71  \\
            0.8766918412772806  28.63  \\
            0.7927639155606832  29.09  \\
            0.5001954817276777  28.67  \\
            0.45742248155386706  30.02  \\
            0.3103614420944171  29.86  \\
            1.412489858718865  28.78  \\
            1.7172723222873127  29.24  \\
            1.4560248688651776  29.98  \\
            1.6099156091533016  28.93  \\
            1.2897641619977152  30.01  \\
            1.5059561768090806  30.44  \\
            1.6611709292696986  28.6  \\
            1.6405916069995057  29.59  \\
            1.3375560594839155  29.9  \\
            1.2394586491728594  29.4  \\
            1.556325062849728  30.35  \\
            1.521641277787938  28.29  \\
            1.3774851259473027  29.82  \\
            1.49583066993057  29.42  \\
            1.2991927295921701  29.32  \\
            1.3995300197655094  28.8  \\
            1.3584260540912176  28.54  \\
            1.4157157922725796  29.68  \\
            1.239014773389077  28.79  \\
            1.4703467198884332  30.31  \\
            1.568641279490137  28.15  \\
            1.6269890146585793  29.91  \\
            1.7414765547246622  28.86  \\
            1.3267712664274414  30.17  \\
            1.2826336739195328  29.92  \\
            1.6172886522904617  29.21  \\
            1.658477562132357  29.16  \\
            1.4808377884649846  28.98  \\
            1.401353359007666  28.48  \\
            1.4935774110211486  28.2  \\
            1.2071625209051047  29.04  \\
            1.5641982741248712  28.93  \\
            1.1508384889264371  29.19  \\
            1.41686839482617  28.29  \\
            1.134737983769407  29.0  \\
            1.404473002203208  29.81  \\
            1.4438409047571903  29.3  \\
            1.7152948698131443  28.79  \\
            1.7221063532547591  28.77  \\
            1.5982040733388752  29.34  \\
            1.75701207812622  28.71  \\
            1.8439070961999149  28.73  \\
            1.341623389652021  28.9  \\
            2.431765376039142  29.15  \\
            2.4227292913587872  29.14  \\
            2.53546036751611  29.47  \\
            2.5323439808539434  30.0  \\
            2.6322734542386215  28.73  \\
            2.3997673306819527  29.01  \\
            2.8617961883805183  29.04  \\
            2.28769436677357  28.95  \\
            2.5303484560748473  28.72  \\
            2.504983185299881  28.6  \\
            2.1098247676858035  29.08  \\
            2.487446025271541  28.97  \\
            2.5179222647990467  30.51  \\
            2.214900827279241  28.98  \\
            2.5974614527054363  28.54  \\
            2.4744033810233916  30.08  \\
            2.3884734720196326  29.4  \\
            2.550245077585613  28.76  \\
            2.4515292708376486  28.98  \\
            2.5038631628317765  28.47  \\
            2.368278249825045  29.4  \\
            2.7008933858253386  29.35  \\
            2.514510941485247  26.58  \\
            2.495286946261402  29.08  \\
            2.4636421873230776  28.42  \\
            2.5227242428995695  31.06  \\
            2.420931830071541  29.01  \\
            2.476634178737721  29.51  \\
            2.670375446289176  29.57  \\
            2.195435295307458  29.27  \\
            2.693764163316541  28.8  \\
            2.5699917841402544  28.79  \\
            2.540726966151916  29.86  \\
            2.7022340587510767  29.45  \\
            2.4379738123441577  28.36  \\
            2.3153280612238545  28.96  \\
            2.5466862657339733  30.37  \\
            2.3188274294387403  28.76  \\
            2.2150620550123716  29.36  \\
            2.320552859233556  29.34  \\
        }
        ;
\end{axis}
\end{tikzpicture}
